generated/Hello.vcd
$date
2021-11-24T12:51+0000
$end
$version
0.2
$end
$comment

$end
$timescale 1ns  $end
$scope module Hello $end
 $var wire 32 ! io_testerDataMemDataRead $end
 $var wire 2 # stateReg $end
 $var wire 16 % _GEN_16 $end
 $var wire 2 ' _GEN_2 $end
 $var wire 16 ( _GEN_10 $end
 $var wire 1 ) _T $end
 $var wire 1 , io_testerDataMemWriteEnable $end
 $var wire 16 1 _GEN_5 $end
 $var wire 16 3 _GEN_13 $end
 $var wire 2 6 _GEN_8 $end
 $var wire 1 9 _GEN_12 $end
 $var wire 32 : io_testerDataMemDataWrite $end
 $var wire 2 ; _GEN_15 $end
 $var wire 16 < _GEN_7 $end
 $var wire 1 = io_start $end
 $var wire 1 A io_testerDataMemEnable $end
 $var wire 16 B addressReg $end
 $var wire 16 C _GEN_1 $end
 $var wire 2 I _GEN_4 $end
 $var wire 1 L clock $end
 $var wire 16 O io_testerDataMemAddress $end
 $var wire 1 P dataMemory $end
 $var wire 1 S io_done $end
 $var wire 2 U _GEN_11 $end
 $var wire 1 Z _GEN_14 $end
 $var wire 2 [ _GEN_0 $end
 $var wire 1 \ _GEN_9 $end
 $var wire 1 ^ reset $end
  $scope module dataMemory $end
   $var wire 32 $ io_testerDataWrite $end
   $var wire 1 + clock $end
   $var wire 1 - io_testerEnable $end
   $var wire 1 ? io_testerWriteEnable $end
   $var wire 32 @ _GEN_5 $end
   $var wire 16 H io_address $end
   $var wire 1 K io_writeEnable $end
   $var wire 16 R io_testerAddress $end
   $var wire 32 T memory $end
   $var wire 32 X io_testerDataRead $end
    $scope module memory $end
      $scope module _T_1 $end
       $var wire 16 " addr $end
       $var wire 16 * pipeline_addr_0 $end
       $var wire 1 . en $end
       $var wire 32 8 data $end
       $var wire 32 E pipeline_data_0 $end
       $var wire 1 Q pipeline_valid_0 $end
       $var wire 1 W valid $end
       $var wire 1 Y mask $end
       $var wire 1 _ clk $end
      $upscope $end
      $scope module _T $end
       $var wire 1 & clk $end
       $var wire 16 G addr $end
       $var wire 1 J en $end
       $var wire 32 ] data $end
      $upscope $end
      $scope module _T_3 $end
       $var wire 1 / pipeline_valid_0 $end
       $var wire 1 0 en $end
       $var wire 1 2 mask $end
       $var wire 16 4 pipeline_addr_0 $end
       $var wire 16 > addr $end
       $var wire 1 F clk $end
       $var wire 32 N pipeline_data_0 $end
       $var wire 32 V data $end
       $var wire 1 ` valid $end
      $upscope $end
      $scope module _T_2 $end
       $var wire 1 5 clk $end
       $var wire 16 7 addr $end
       $var wire 32 D data $end
       $var wire 1 M en $end
      $upscope $end
    $upscope $end
  $upscope $end
$upscope $end
$enddefinitions $end
$dumpvars
b0000000000000000 H
b00000000000000000000000000000000 D
0&
b00 '
0Z
b0000000000000000 B
0=
b00 [
b00000000000000000000000000000000 !
b00 U
b00000000000000000000000000000000 8
b00 #
b0000000000000000 >
09
b00000000000000000000000000000000 :
0P
b0000000000000000 O
0J
05
b0000000000000000 %
b00 6
0-
b0000000000000000 <
0L
b0000000000000000 4
b00000000000000000000000000000000 E
0/
1Y
0F
0)
b00 I
0+
b00000000000000000000000000000000 $
0_
b0000000000000000 G
b00000000000000000000000000000000 X
0W
b0000000000000000 *
0S
b0000000000000000 C
b00000000000000000000000000000000 T
b00000000000000000000000000000000 V
0M
b0000000000000000 (
b00000000000000000000000000000000 N
b0000000000000000 "
b00 ;
0Q
12
0`
0K
b0000000000000000 3
0.
b0000000000000000 R
00
0\
b0000000000000000 7
b00000000000000000000000000000000 ]
0?
b00000000000000000000000000000000 @
0^
0A
0,
b0000000000000000 1
$end
#0
b01 '
1^
1)
1M
#1
1F
1&
15
1+
1L
1_
#6
0F
0&
05
0+
0L
0_
#11
1F
1&
15
1+
1L
1_
#16
0F
0&
05
0+
0L
0_
#21
1F
1&
15
1+
1L
1_
#26
0F
0&
05
0+
0L
0_
#31
1F
1&
15
1+
1L
1_
#36
0F
0&
05
0+
0L
0_
#41
1F
1&
15
1+
1L
1_
#46
1-
1.
1J
05
0&
0L
0M
1?
0F
1W
0+
0^
1A
1,
0_
#51
1Q
1F
1&
15
1+
1L
1_
#56
0F
b0000000000000001 "
b0000000000000001 R
0&
05
b0000000000000001 G
b0000000000000001 O
0L
0+
0_
#61
1F
1&
15
b0000000000000001 *
1+
1L
1_
#66
0F
b0000000000000010 "
b0000000000000010 R
0&
05
b0000000000000010 G
b0000000000000010 O
0L
0+
0_
#71
1F
1&
15
b0000000000000010 *
1+
1L
1_
#76
0F
b0000000000000011 "
b0000000000000011 R
0&
05
b0000000000000011 G
b0000000000000011 O
0L
0+
0_
#81
1F
1&
15
b0000000000000011 *
1+
1L
1_
#86
0F
b0000000000000100 "
b0000000000000100 R
0&
05
b0000000000000100 G
b0000000000000100 O
0L
0+
0_
#91
1F
1&
15
b0000000000000100 *
1+
1L
1_
#96
0F
b0000000000000101 "
b0000000000000101 R
0&
05
b0000000000000101 G
b0000000000000101 O
0L
0+
0_
#101
1F
1&
15
b0000000000000101 *
1+
1L
1_
#106
0F
b0000000000000110 "
b0000000000000110 R
0&
05
b0000000000000110 G
b0000000000000110 O
0L
0+
0_
#111
1F
1&
15
b0000000000000110 *
1+
1L
1_
#116
0F
b0000000000000111 "
b0000000000000111 R
0&
05
b0000000000000111 G
b0000000000000111 O
0L
0+
0_
#121
1F
1&
15
b0000000000000111 *
1+
1L
1_
#126
0F
b0000000000001000 "
b0000000000001000 R
0&
05
b0000000000001000 G
b0000000000001000 O
0L
0+
0_
#131
1F
1&
15
b0000000000001000 *
1+
1L
1_
#136
0F
b0000000000001001 "
b0000000000001001 R
0&
05
b0000000000001001 G
b0000000000001001 O
0L
0+
0_
#141
1F
1&
15
b0000000000001001 *
1+
1L
1_
#146
0F
b0000000000001010 "
b0000000000001010 R
0&
05
b0000000000001010 G
b0000000000001010 O
0L
0+
0_
#151
1F
1&
15
b0000000000001010 *
1+
1L
1_
#156
0F
b0000000000001011 "
b0000000000001011 R
0&
05
b0000000000001011 G
b0000000000001011 O
0L
0+
0_
#161
1F
1&
15
b0000000000001011 *
1+
1L
1_
#166
0F
b0000000000001100 "
b0000000000001100 R
0&
05
b0000000000001100 G
b0000000000001100 O
0L
0+
0_
#171
1F
1&
15
b0000000000001100 *
1+
1L
1_
#176
0F
b0000000000001101 "
b0000000000001101 R
0&
05
b0000000000001101 G
b0000000000001101 O
0L
0+
0_
#181
1F
1&
15
b0000000000001101 *
1+
1L
1_
#186
0F
b0000000000001110 "
b0000000000001110 R
0&
05
b0000000000001110 G
b0000000000001110 O
0L
0+
0_
#191
1F
1&
15
b0000000000001110 *
1+
1L
1_
#196
0F
b0000000000001111 "
b0000000000001111 R
0&
05
b0000000000001111 G
b0000000000001111 O
0L
0+
0_
#201
1F
1&
15
b0000000000001111 *
1+
1L
1_
#206
0F
b0000000000010000 "
b0000000000010000 R
0&
05
b0000000000010000 G
b0000000000010000 O
0L
0+
0_
#211
1F
1&
15
b0000000000010000 *
1+
1L
1_
#216
0F
b0000000000010001 "
b0000000000010001 R
0&
05
b0000000000010001 G
b0000000000010001 O
0L
0+
0_
#221
1F
1&
15
b0000000000010001 *
1+
1L
1_
#226
0F
b0000000000010010 "
b0000000000010010 R
0&
05
b0000000000010010 G
b0000000000010010 O
0L
0+
0_
#231
1F
1&
15
b0000000000010010 *
1+
1L
1_
#236
0F
b0000000000010011 "
b0000000000010011 R
0&
05
b0000000000010011 G
b0000000000010011 O
0L
0+
0_
#241
1F
1&
15
b0000000000010011 *
1+
1L
1_
#246
0F
b0000000000010100 "
b0000000000010100 R
0&
05
b0000000000010100 G
b0000000000010100 O
0L
0+
0_
#251
1F
1&
15
b0000000000010100 *
1+
1L
1_
#256
0F
b0000000000010101 "
b0000000000010101 R
0&
05
b0000000000010101 G
b0000000000010101 O
0L
0+
0_
#261
1F
1&
15
b0000000000010101 *
1+
1L
1_
#266
0F
b0000000000010110 "
b0000000000010110 R
0&
05
b0000000000010110 G
b0000000000010110 O
0L
0+
0_
#271
1F
1&
15
b0000000000010110 *
1+
1L
1_
#276
0F
b0000000000010111 "
b0000000000010111 R
0&
05
b0000000000010111 G
b0000000000010111 O
0L
0+
0_
#281
1F
1&
15
b0000000000010111 *
1+
1L
1_
#286
0F
b0000000000011000 "
b0000000000011000 R
0&
05
b0000000000011000 G
b0000000000011000 O
0L
0+
0_
#291
1F
1&
15
b0000000000011000 *
1+
1L
1_
#296
0F
b0000000000011001 "
b0000000000011001 R
0&
05
b0000000000011001 G
b0000000000011001 O
0L
0+
0_
#301
1F
1&
15
b0000000000011001 *
1+
1L
1_
#306
0F
b0000000000011010 "
b0000000000011010 R
0&
05
b0000000000011010 G
b0000000000011010 O
0L
0+
0_
#311
1F
1&
15
b0000000000011010 *
1+
1L
1_
#316
0F
b0000000000011011 "
b0000000000011011 R
0&
05
b0000000000011011 G
b0000000000011011 O
0L
0+
0_
#321
1F
1&
15
b0000000000011011 *
1+
1L
1_
#326
0F
b0000000000011100 "
b0000000000011100 R
0&
05
b0000000000011100 G
b0000000000011100 O
0L
0+
0_
#331
1F
1&
15
b0000000000011100 *
1+
1L
1_
#336
0F
b0000000000011101 "
b0000000000011101 R
0&
05
b0000000000011101 G
b0000000000011101 O
0L
0+
0_
#341
1F
1&
15
b0000000000011101 *
1+
1L
1_
#346
0F
b0000000000011110 "
b0000000000011110 R
0&
05
b0000000000011110 G
b0000000000011110 O
0L
0+
0_
#351
1F
1&
15
b0000000000011110 *
1+
1L
1_
#356
0F
b0000000000011111 "
b0000000000011111 R
0&
05
b0000000000011111 G
b0000000000011111 O
0L
0+
0_
#361
1F
1&
15
b0000000000011111 *
1+
1L
1_
#366
0F
b0000000000100000 "
b0000000000100000 R
0&
05
b0000000000100000 G
b0000000000100000 O
0L
0+
0_
#371
1F
1&
15
b0000000000100000 *
1+
1L
1_
#376
0F
b0000000000100001 "
b0000000000100001 R
0&
05
b0000000000100001 G
b0000000000100001 O
0L
0+
0_
#381
1F
1&
15
b0000000000100001 *
1+
1L
1_
#386
0F
b0000000000100010 "
b0000000000100010 R
0&
05
b0000000000100010 G
b0000000000100010 O
0L
0+
0_
#391
1F
1&
15
b0000000000100010 *
1+
1L
1_
#396
0F
b0000000000100011 "
b0000000000100011 R
0&
05
b0000000000100011 G
b0000000000100011 O
0L
0+
0_
#401
1F
1&
15
b0000000000100011 *
1+
1L
1_
#406
0F
b0000000000100100 "
b0000000000100100 R
0&
05
b0000000000100100 G
b0000000000100100 O
0L
0+
0_
#411
1F
1&
15
b0000000000100100 *
1+
1L
1_
#416
0F
b0000000000100101 "
b0000000000100101 R
0&
05
b0000000000100101 G
b0000000000100101 O
0L
0+
0_
#421
1F
1&
15
b0000000000100101 *
1+
1L
1_
#426
0F
b0000000000100110 "
b0000000000100110 R
0&
05
b0000000000100110 G
b0000000000100110 O
0L
0+
0_
#431
1F
1&
15
b0000000000100110 *
1+
1L
1_
#436
0F
b0000000000100111 "
b0000000000100111 R
0&
05
b0000000000100111 G
b0000000000100111 O
0L
0+
0_
#441
1F
1&
15
b0000000000100111 *
1+
1L
1_
#446
0F
b0000000000101000 "
b0000000000101000 R
0&
05
b0000000000101000 G
b0000000000101000 O
0L
0+
0_
#451
1F
1&
15
b0000000000101000 *
1+
1L
1_
#456
0F
b0000000000101001 "
b0000000000101001 R
0&
05
b0000000000101001 G
b0000000000101001 O
0L
0+
0_
#461
1F
1&
15
b0000000000101001 *
1+
1L
1_
#466
0F
b0000000000101010 "
b0000000000101010 R
0&
05
b0000000000101010 G
b0000000000101010 O
0L
0+
0_
#471
1F
1&
15
b0000000000101010 *
1+
1L
1_
#476
0F
b0000000000101011 "
b0000000000101011 R
0&
05
b0000000000101011 G
b0000000000101011 O
0L
0+
0_
#481
1F
1&
15
b0000000000101011 *
1+
1L
1_
#486
0F
b0000000000101100 "
b0000000000101100 R
0&
05
b0000000000101100 G
b0000000000101100 O
0L
0+
0_
#491
1F
1&
15
b0000000000101100 *
1+
1L
1_
#496
0F
b0000000000101101 "
b0000000000101101 R
0&
05
b0000000000101101 G
b0000000000101101 O
0L
0+
0_
#501
1F
1&
15
b0000000000101101 *
1+
1L
1_
#506
0F
b0000000000101110 "
b0000000000101110 R
0&
05
b0000000000101110 G
b0000000000101110 O
0L
0+
0_
#511
1F
1&
15
b0000000000101110 *
1+
1L
1_
#516
0F
b0000000000101111 "
b0000000000101111 R
0&
05
b0000000000101111 G
b0000000000101111 O
0L
0+
0_
#521
1F
1&
15
b0000000000101111 *
1+
1L
1_
#526
0F
b0000000000110000 "
b0000000000110000 R
0&
05
b0000000000110000 G
b0000000000110000 O
0L
0+
0_
#531
1F
1&
15
b0000000000110000 *
1+
1L
1_
#536
0F
b0000000000110001 "
b0000000000110001 R
0&
05
b0000000000110001 G
b0000000000110001 O
0L
0+
0_
#541
1F
1&
15
b0000000000110001 *
1+
1L
1_
#546
0F
b0000000000110010 "
b0000000000110010 R
0&
05
b0000000000110010 G
b0000000000110010 O
0L
0+
0_
#551
1F
1&
15
b0000000000110010 *
1+
1L
1_
#556
0F
b0000000000110011 "
b0000000000110011 R
0&
05
b0000000000110011 G
b0000000000110011 O
0L
0+
0_
#561
1F
1&
15
b0000000000110011 *
1+
1L
1_
#566
0F
b0000000000110100 "
b0000000000110100 R
0&
05
b0000000000110100 G
b0000000000110100 O
0L
0+
0_
#571
1F
1&
15
b0000000000110100 *
1+
1L
1_
#576
0F
b0000000000110101 "
b0000000000110101 R
0&
05
b0000000000110101 G
b0000000000110101 O
0L
0+
0_
#581
1F
1&
15
b0000000000110101 *
1+
1L
1_
#586
0F
b0000000000110110 "
b0000000000110110 R
0&
05
b0000000000110110 G
b0000000000110110 O
0L
0+
0_
#591
1F
1&
15
b0000000000110110 *
1+
1L
1_
#596
0F
b0000000000110111 "
b0000000000110111 R
0&
05
b0000000000110111 G
b0000000000110111 O
0L
0+
0_
#601
1F
1&
15
b0000000000110111 *
1+
1L
1_
#606
0F
b0000000000111000 "
b0000000000111000 R
0&
05
b0000000000111000 G
b0000000000111000 O
0L
0+
0_
#611
1F
1&
15
b0000000000111000 *
1+
1L
1_
#616
0F
b0000000000111001 "
b0000000000111001 R
0&
05
b0000000000111001 G
b0000000000111001 O
0L
0+
0_
#621
1F
1&
15
b0000000000111001 *
1+
1L
1_
#626
0F
b0000000000111010 "
b0000000000111010 R
0&
05
b0000000000111010 G
b0000000000111010 O
0L
0+
0_
#631
1F
1&
15
b0000000000111010 *
1+
1L
1_
#636
0F
b0000000000111011 "
b0000000000111011 R
0&
05
b0000000000111011 G
b0000000000111011 O
0L
0+
0_
#641
1F
1&
15
b0000000000111011 *
1+
1L
1_
#646
0F
b0000000000111100 "
b0000000000111100 R
0&
05
b0000000000111100 G
b0000000000111100 O
0L
0+
0_
#651
1F
1&
15
b0000000000111100 *
1+
1L
1_
#656
0F
b0000000000111101 "
b0000000000111101 R
0&
05
b0000000000111101 G
b0000000000111101 O
0L
0+
0_
#661
1F
1&
15
b0000000000111101 *
1+
1L
1_
#666
0F
b0000000000111110 "
b0000000000111110 R
0&
05
b0000000000111110 G
b0000000000111110 O
0L
0+
0_
#671
1F
1&
15
b0000000000111110 *
1+
1L
1_
#676
0F
b0000000000111111 "
b0000000000111111 R
0&
05
b0000000000111111 G
b0000000000111111 O
0L
0+
0_
#681
1F
1&
15
b0000000000111111 *
1+
1L
1_
#686
0F
b0000000001000000 "
b0000000001000000 R
0&
05
b0000000001000000 G
b0000000001000000 O
0L
0+
0_
#691
1F
1&
15
b0000000001000000 *
1+
1L
1_
#696
0F
b0000000001000001 "
b0000000001000001 R
0&
05
b0000000001000001 G
b0000000001000001 O
0L
0+
0_
#701
1F
1&
15
b0000000001000001 *
1+
1L
1_
#706
0F
b0000000001000010 "
b0000000001000010 R
0&
05
b0000000001000010 G
b0000000001000010 O
0L
0+
0_
#711
1F
1&
15
b0000000001000010 *
1+
1L
1_
#716
0F
b0000000001000011 "
b0000000001000011 R
0&
05
b0000000001000011 G
b0000000001000011 O
0L
0+
0_
#721
1F
1&
15
b0000000001000011 *
1+
1L
1_
#726
0F
b0000000001000100 "
b0000000001000100 R
0&
05
b0000000001000100 G
b0000000001000100 O
0L
0+
0_
#731
1F
1&
15
b0000000001000100 *
1+
1L
1_
#736
0F
b0000000001000101 "
b0000000001000101 R
0&
05
b0000000001000101 G
b0000000001000101 O
0L
0+
0_
#741
1F
1&
15
b0000000001000101 *
1+
1L
1_
#746
0F
b0000000001000110 "
b0000000001000110 R
0&
05
b0000000001000110 G
b0000000001000110 O
0L
0+
0_
#751
1F
1&
15
b0000000001000110 *
1+
1L
1_
#756
0F
b0000000001000111 "
b0000000001000111 R
0&
05
b0000000001000111 G
b0000000001000111 O
0L
0+
0_
#761
1F
1&
15
b0000000001000111 *
1+
1L
1_
#766
0F
b0000000001001000 "
b0000000001001000 R
0&
05
b0000000001001000 G
b0000000001001000 O
0L
0+
0_
#771
1F
1&
15
b0000000001001000 *
1+
1L
1_
#776
0F
b0000000001001001 "
b0000000001001001 R
0&
05
b0000000001001001 G
b0000000001001001 O
0L
0+
0_
#781
1F
1&
15
b0000000001001001 *
1+
1L
1_
#786
0F
b0000000001001010 "
b0000000001001010 R
0&
05
b0000000001001010 G
b0000000001001010 O
0L
0+
0_
#791
1F
1&
15
b0000000001001010 *
1+
1L
1_
#796
0F
b0000000001001011 "
b0000000001001011 R
0&
05
b0000000001001011 G
b0000000001001011 O
0L
0+
0_
#801
1F
1&
15
b0000000001001011 *
1+
1L
1_
#806
0F
b0000000001001100 "
b0000000001001100 R
0&
05
b0000000001001100 G
b0000000001001100 O
0L
0+
0_
#811
1F
1&
15
b0000000001001100 *
1+
1L
1_
#816
0F
b0000000001001101 "
b0000000001001101 R
0&
05
b0000000001001101 G
b0000000001001101 O
0L
0+
0_
#821
1F
1&
15
b0000000001001101 *
1+
1L
1_
#826
0F
b0000000001001110 "
b0000000001001110 R
0&
05
b0000000001001110 G
b0000000001001110 O
0L
0+
0_
#831
1F
1&
15
b0000000001001110 *
1+
1L
1_
#836
0F
b0000000001001111 "
b0000000001001111 R
0&
05
b0000000001001111 G
b0000000001001111 O
0L
0+
0_
#841
1F
1&
15
b0000000001001111 *
1+
1L
1_
#846
0F
b0000000001010000 "
b0000000001010000 R
0&
05
b0000000001010000 G
b0000000001010000 O
0L
0+
0_
#851
1F
1&
15
b0000000001010000 *
1+
1L
1_
#856
0F
b0000000001010001 "
b0000000001010001 R
0&
05
b0000000001010001 G
b0000000001010001 O
0L
0+
0_
#861
1F
1&
15
b0000000001010001 *
1+
1L
1_
#866
0F
b0000000001010010 "
b0000000001010010 R
0&
05
b0000000001010010 G
b0000000001010010 O
0L
0+
0_
#871
1F
1&
15
b0000000001010010 *
1+
1L
1_
#876
0F
b0000000001010011 "
b0000000001010011 R
0&
05
b0000000001010011 G
b0000000001010011 O
0L
0+
0_
#881
1F
1&
15
b0000000001010011 *
1+
1L
1_
#886
0F
b0000000001010100 "
b0000000001010100 R
0&
05
b0000000001010100 G
b0000000001010100 O
0L
0+
0_
#891
1F
1&
15
b0000000001010100 *
1+
1L
1_
#896
0F
b0000000001010101 "
b0000000001010101 R
0&
05
b0000000001010101 G
b0000000001010101 O
0L
0+
0_
#901
1F
1&
15
b0000000001010101 *
1+
1L
1_
#906
0F
b0000000001010110 "
b0000000001010110 R
0&
05
b0000000001010110 G
b0000000001010110 O
0L
0+
0_
#911
1F
1&
15
b0000000001010110 *
1+
1L
1_
#916
0F
b0000000001010111 "
b0000000001010111 R
0&
05
b0000000001010111 G
b0000000001010111 O
0L
0+
0_
#921
1F
1&
15
b0000000001010111 *
1+
1L
1_
#926
0F
b0000000001011000 "
b0000000001011000 R
0&
05
b0000000001011000 G
b0000000001011000 O
0L
0+
0_
#931
1F
1&
15
b0000000001011000 *
1+
1L
1_
#936
0F
b0000000001011001 "
b0000000001011001 R
0&
05
b0000000001011001 G
b0000000001011001 O
0L
0+
0_
#941
1F
1&
15
b0000000001011001 *
1+
1L
1_
#946
0F
b0000000001011010 "
b0000000001011010 R
0&
05
b0000000001011010 G
b0000000001011010 O
0L
0+
0_
#951
1F
1&
15
b0000000001011010 *
1+
1L
1_
#956
0F
b0000000001011011 "
b0000000001011011 R
0&
05
b0000000001011011 G
b0000000001011011 O
0L
0+
0_
#961
1F
1&
15
b0000000001011011 *
1+
1L
1_
#966
0F
b0000000001011100 "
b0000000001011100 R
0&
05
b0000000001011100 G
b0000000001011100 O
0L
0+
0_
#971
1F
1&
15
b0000000001011100 *
1+
1L
1_
#976
0F
b0000000001011101 "
b0000000001011101 R
0&
05
b0000000001011101 G
b0000000001011101 O
0L
0+
0_
#981
1F
1&
15
b0000000001011101 *
1+
1L
1_
#986
0F
b0000000001011110 "
b0000000001011110 R
0&
05
b0000000001011110 G
b0000000001011110 O
0L
0+
0_
#991
1F
1&
15
b0000000001011110 *
1+
1L
1_
#996
b00000000000000000000000011111111 X
b0000000001011111 R
0&
05
0L
b00000000000000000000000011111111 !
0F
b0000000001011111 "
b00000000000000000000000011111111 @
b00000000000000000000000011111111 8
b0000000001011111 G
b00000000000000000000000011111111 $
b0000000001011111 O
b00000000000000000000000011111111 :
0+
0_
#1001
1F
1&
15
b0000000001011111 *
b00000000000000000000000011111111 ]
b00000000000000000000000011111111 E
1+
1L
1_
#1006
b00000000000000000000000000000000 X
b0000000001100000 R
0&
05
0L
b00000000000000000000000000000000 !
0F
b0000000001100000 "
b00000000000000000000000000000000 @
b00000000000000000000000000000000 8
b0000000001100000 G
b00000000000000000000000000000000 ]
b00000000000000000000000000000000 $
b0000000001100000 O
b00000000000000000000000000000000 :
0+
0_
#1011
1F
1&
15
b0000000001100000 *
b00000000000000000000000000000000 E
1+
1L
1_
#1016
0F
b0000000001100001 "
b0000000001100001 R
0&
05
b0000000001100001 G
b0000000001100001 O
0L
0+
0_
#1021
1F
1&
15
b0000000001100001 *
1+
1L
1_
#1026
0F
b0000000001100010 "
b0000000001100010 R
0&
05
b0000000001100010 G
b0000000001100010 O
0L
0+
0_
#1031
1F
1&
15
b0000000001100010 *
1+
1L
1_
#1036
0F
b0000000001100011 "
b0000000001100011 R
0&
05
b0000000001100011 G
b0000000001100011 O
0L
0+
0_
#1041
1F
1&
15
b0000000001100011 *
1+
1L
1_
#1046
0F
b0000000001100100 "
b0000000001100100 R
0&
05
b0000000001100100 G
b0000000001100100 O
0L
0+
0_
#1051
1F
1&
15
b0000000001100100 *
1+
1L
1_
#1056
0F
b0000000001100101 "
b0000000001100101 R
0&
05
b0000000001100101 G
b0000000001100101 O
0L
0+
0_
#1061
1F
1&
15
b0000000001100101 *
1+
1L
1_
#1066
0F
b0000000001100110 "
b0000000001100110 R
0&
05
b0000000001100110 G
b0000000001100110 O
0L
0+
0_
#1071
1F
1&
15
b0000000001100110 *
1+
1L
1_
#1076
0F
b0000000001100111 "
b0000000001100111 R
0&
05
b0000000001100111 G
b0000000001100111 O
0L
0+
0_
#1081
1F
1&
15
b0000000001100111 *
1+
1L
1_
#1086
b00000000000000000000000011111111 X
b0000000001101000 R
0&
05
0L
b00000000000000000000000011111111 !
0F
b0000000001101000 "
b00000000000000000000000011111111 @
b00000000000000000000000011111111 8
b0000000001101000 G
b00000000000000000000000011111111 $
b0000000001101000 O
b00000000000000000000000011111111 :
0+
0_
#1091
1F
1&
15
b0000000001101000 *
b00000000000000000000000011111111 ]
b00000000000000000000000011111111 E
1+
1L
1_
#1096
b00000000000000000000000000000000 X
b0000000001101001 R
0&
05
0L
b00000000000000000000000000000000 !
0F
b0000000001101001 "
b00000000000000000000000000000000 @
b00000000000000000000000000000000 8
b0000000001101001 G
b00000000000000000000000000000000 ]
b00000000000000000000000000000000 $
b0000000001101001 O
b00000000000000000000000000000000 :
0+
0_
#1101
1F
1&
15
b0000000001101001 *
b00000000000000000000000000000000 E
1+
1L
1_
#1106
0F
b0000000001101010 "
b0000000001101010 R
0&
05
b0000000001101010 G
b0000000001101010 O
0L
0+
0_
#1111
1F
1&
15
b0000000001101010 *
1+
1L
1_
#1116
0F
b0000000001101011 "
b0000000001101011 R
0&
05
b0000000001101011 G
b0000000001101011 O
0L
0+
0_
#1121
1F
1&
15
b0000000001101011 *
1+
1L
1_
#1126
0F
b0000000001101100 "
b0000000001101100 R
0&
05
b0000000001101100 G
b0000000001101100 O
0L
0+
0_
#1131
1F
1&
15
b0000000001101100 *
1+
1L
1_
#1136
0F
b0000000001101101 "
b0000000001101101 R
0&
05
b0000000001101101 G
b0000000001101101 O
0L
0+
0_
#1141
1F
1&
15
b0000000001101101 *
1+
1L
1_
#1146
0F
b0000000001101110 "
b0000000001101110 R
0&
05
b0000000001101110 G
b0000000001101110 O
0L
0+
0_
#1151
1F
1&
15
b0000000001101110 *
1+
1L
1_
#1156
0F
b0000000001101111 "
b0000000001101111 R
0&
05
b0000000001101111 G
b0000000001101111 O
0L
0+
0_
#1161
1F
1&
15
b0000000001101111 *
1+
1L
1_
#1166
0F
b0000000001110000 "
b0000000001110000 R
0&
05
b0000000001110000 G
b0000000001110000 O
0L
0+
0_
#1171
1F
1&
15
b0000000001110000 *
1+
1L
1_
#1176
0F
b0000000001110001 "
b0000000001110001 R
0&
05
b0000000001110001 G
b0000000001110001 O
0L
0+
0_
#1181
1F
1&
15
b0000000001110001 *
1+
1L
1_
#1186
b00000000000000000000000011111111 X
b0000000001110010 R
0&
05
0L
b00000000000000000000000011111111 !
0F
b0000000001110010 "
b00000000000000000000000011111111 @
b00000000000000000000000011111111 8
b0000000001110010 G
b00000000000000000000000011111111 $
b0000000001110010 O
b00000000000000000000000011111111 :
0+
0_
#1191
1F
1&
15
b0000000001110010 *
b00000000000000000000000011111111 ]
b00000000000000000000000011111111 E
1+
1L
1_
#1196
0F
b0000000001110011 "
b0000000001110011 R
0&
05
b0000000001110011 G
b00000000000000000000000000000000 ]
b0000000001110011 O
0L
0+
0_
#1201
1F
1&
15
b0000000001110011 *
b00000000000000000000000011111111 ]
1+
1L
1_
#1206
0F
b0000000001110100 "
b0000000001110100 R
0&
05
b0000000001110100 G
b00000000000000000000000000000000 ]
b0000000001110100 O
0L
0+
0_
#1211
1F
1&
15
b0000000001110100 *
b00000000000000000000000011111111 ]
1+
1L
1_
#1216
b00000000000000000000000000000000 X
b0000000001110101 R
0&
05
0L
b00000000000000000000000000000000 !
0F
b0000000001110101 "
b00000000000000000000000000000000 @
b00000000000000000000000000000000 8
b0000000001110101 G
b00000000000000000000000000000000 ]
b00000000000000000000000000000000 $
b0000000001110101 O
b00000000000000000000000000000000 :
0+
0_
#1221
1F
1&
15
b0000000001110101 *
b00000000000000000000000000000000 E
1+
1L
1_
#1226
0F
b0000000001110110 "
b0000000001110110 R
0&
05
b0000000001110110 G
b0000000001110110 O
0L
0+
0_
#1231
1F
1&
15
b0000000001110110 *
1+
1L
1_
#1236
0F
b0000000001110111 "
b0000000001110111 R
0&
05
b0000000001110111 G
b0000000001110111 O
0L
0+
0_
#1241
1F
1&
15
b0000000001110111 *
1+
1L
1_
#1246
0F
b0000000001111000 "
b0000000001111000 R
0&
05
b0000000001111000 G
b0000000001111000 O
0L
0+
0_
#1251
1F
1&
15
b0000000001111000 *
1+
1L
1_
#1256
0F
b0000000001111001 "
b0000000001111001 R
0&
05
b0000000001111001 G
b0000000001111001 O
0L
0+
0_
#1261
1F
1&
15
b0000000001111001 *
1+
1L
1_
#1266
0F
b0000000001111010 "
b0000000001111010 R
0&
05
b0000000001111010 G
b0000000001111010 O
0L
0+
0_
#1271
1F
1&
15
b0000000001111010 *
1+
1L
1_
#1276
b00000000000000000000000011111111 X
b0000000001111011 R
0&
05
0L
b00000000000000000000000011111111 !
0F
b0000000001111011 "
b00000000000000000000000011111111 @
b00000000000000000000000011111111 8
b0000000001111011 G
b00000000000000000000000011111111 $
b0000000001111011 O
b00000000000000000000000011111111 :
0+
0_
#1281
1F
1&
15
b0000000001111011 *
b00000000000000000000000011111111 ]
b00000000000000000000000011111111 E
1+
1L
1_
#1286
0F
b0000000001111100 "
b0000000001111100 R
0&
05
b0000000001111100 G
b00000000000000000000000000000000 ]
b0000000001111100 O
0L
0+
0_
#1291
1F
1&
15
b0000000001111100 *
b00000000000000000000000011111111 ]
1+
1L
1_
#1296
0F
b0000000001111101 "
b0000000001111101 R
0&
05
b0000000001111101 G
b00000000000000000000000000000000 ]
b0000000001111101 O
0L
0+
0_
#1301
1F
1&
15
b0000000001111101 *
b00000000000000000000000011111111 ]
1+
1L
1_
#1306
b00000000000000000000000000000000 X
b0000000001111110 R
0&
05
0L
b00000000000000000000000000000000 !
0F
b0000000001111110 "
b00000000000000000000000000000000 @
b00000000000000000000000000000000 8
b0000000001111110 G
b00000000000000000000000000000000 ]
b00000000000000000000000000000000 $
b0000000001111110 O
b00000000000000000000000000000000 :
0+
0_
#1311
1F
1&
15
b0000000001111110 *
b00000000000000000000000000000000 E
1+
1L
1_
#1316
0F
b0000000001111111 "
b0000000001111111 R
0&
05
b0000000001111111 G
b0000000001111111 O
0L
0+
0_
#1321
1F
1&
15
b0000000001111111 *
1+
1L
1_
#1326
0F
b0000000010000000 "
b0000000010000000 R
0&
05
b0000000010000000 G
b0000000010000000 O
0L
0+
0_
#1331
1F
1&
15
b0000000010000000 *
1+
1L
1_
#1336
0F
b0000000010000001 "
b0000000010000001 R
0&
05
b0000000010000001 G
b0000000010000001 O
0L
0+
0_
#1341
1F
1&
15
b0000000010000001 *
1+
1L
1_
#1346
0F
b0000000010000010 "
b0000000010000010 R
0&
05
b0000000010000010 G
b0000000010000010 O
0L
0+
0_
#1351
1F
1&
15
b0000000010000010 *
1+
1L
1_
