generated/SystemTop.vcd
$date
2021-11-30T21:01+0000
$end
$version
0.2
$end
$comment

$end
$timescale 1ns  $end
$scope module SystemTop $end
 $var wire 32 # io_testerDataMemDataRead $end
 $var wire 1 + io_testerDataMemWriteEnable $end
 $var wire 32 L io_testerDataMemDataWrite $end
 $var wire 1 M io_start $end
 $var wire 1 V io_testerDataMemEnable $end
 $var wire 1 i clock $end
 $var wire 1 s dataMemory $end
 $var wire 16 t io_testerDataMemAddress $end
 $var wire 1 w accelerator $end
 $var wire 1 { io_done $end
 $var wire 1 "4 reset $end
  $scope module dataMemory $end
   $var wire 32 ! _GEN_11 $end
   $var wire 32 % io_testerDataWrite $end
   $var wire 1 * clock $end
   $var wire 1 , io_testerEnable $end
   $var wire 32 9 io_dataRead $end
   $var wire 32 : io_dataWrite $end
   $var wire 1 Q io_testerWriteEnable $end
   $var wire 32 S _GEN_5 $end
   $var wire 16 d io_address $end
   $var wire 1 f io_writeEnable $end
   $var wire 16 | io_testerAddress $end
   $var wire 32 ~ memory $end
   $var wire 32 "+ io_testerDataRead $end
    $scope module memory $end
      $scope module _T_1 $end
       $var wire 16 $ addr $end
       $var wire 16 ) pipeline_addr_0 $end
       $var wire 1 - en $end
       $var wire 32 I data $end
       $var wire 32 ^ pipeline_data_0 $end
       $var wire 1 x pipeline_valid_0 $end
       $var wire 1 "$ valid $end
       $var wire 1 "- mask $end
       $var wire 1 "7 clk $end
      $upscope $end
      $scope module _T $end
       $var wire 1 ( clk $end
       $var wire 16 c addr $end
       $var wire 1 g en $end
       $var wire 32 "2 data $end
      $upscope $end
      $scope module _T_3 $end
       $var wire 1 . pipeline_valid_0 $end
       $var wire 1 0 en $end
       $var wire 1 1 mask $end
       $var wire 16 4 pipeline_addr_0 $end
       $var wire 16 O addr $end
       $var wire 1 a clk $end
       $var wire 32 u pipeline_data_0 $end
       $var wire 32 "" data $end
       $var wire 1 "@ valid $end
      $upscope $end
      $scope module _T_2 $end
       $var wire 1 5 clk $end
       $var wire 16 ; addr $end
       $var wire 32 [ data $end
       $var wire 1 o en $end
      $upscope $end
    $upscope $end
  $upscope $end
  $scope module accelerator $end
   $var wire 32 " _GEN_2 $end
   $var wire 1 & _GEN_34 $end
   $var wire 16 ' _GEN_28 $end
   $var wire 4 / _GEN_66 $end
   $var wire 32 2 dataReg $end
   $var wire 1 3 _GEN_51 $end
   $var wire 1 6 _GEN_48 $end
   $var wire 16 7 _GEN_54 $end
   $var wire 4 8 _GEN_33 $end
   $var wire 32 < _GEN_69 $end
   $var wire 32 = _GEN_60 $end
   $var wire 32 > _GEN_57 $end
   $var wire 4 ? _GEN_15 $end
   $var wire 16 @ _GEN_42 $end
   $var wire 32 A _GEN_36 $end
   $var wire 16 B _GEN_63 $end
   $var wire 32 C _GEN_21 $end
   $var wire 1 D reset $end
   $var wire 1 E _GEN_30 $end
   $var wire 16 F _GEN_24 $end
   $var wire 4 G _GEN_7 $end
   $var wire 16 H _GEN_18 $end
   $var wire 16 J _GEN_45 $end
   $var wire 32 K _GEN_39 $end
   $var wire 1 N _GEN_27 $end
   $var wire 8 P _GEN_12 $end
   $var wire 32 R counter $end
   $var wire 4 T stateReg $end
   $var wire 16 U _GEN_1 $end
   $var wire 32 W _GEN_4 $end
   $var wire 1 X _T $end
   $var wire 1 Y _GEN_62 $end
   $var wire 16 Z _GEN_56 $end
   $var wire 16 \ _GEN_38 $end
   $var wire 32 ] _GEN_50 $end
   $var wire 1 _ _GEN_44 $end
   $var wire 16 ` _GEN_59 $end
   $var wire 32 b _GEN_71 $end
   $var wire 1 e _GEN_65 $end
   $var wire 32 h _GEN_32 $end
   $var wire 4 j _GEN_53 $end
   $var wire 4 k _GEN_47 $end
   $var wire 1 l io_done $end
   $var wire 4 m _GEN_11 $end
   $var wire 4 n _GEN_26 $end
   $var wire 16 p _GEN_35 $end
   $var wire 1 q io_writeEnable $end
   $var wire 1 r _GEN_41 $end
   $var wire 32 v _GEN_29 $end
   $var wire 16 y _GEN_20 $end
   $var wire 32 z _GEN_14 $end
   $var wire 4 } _GEN_17 $end
   $var wire 32 "! io_dataWrite $end
   $var wire 1 "# _GEN_23 $end
   $var wire 4 "% _GEN_9 $end
   $var wire 1 "& clock $end
   $var wire 16 "' io_address $end
   $var wire 4 "( _GEN_0 $end
   $var wire 1 ") io_start $end
   $var wire 32 "* io_dataRead $end
   $var wire 16 ", _GEN_67 $end
   $var wire 4 ". _GEN_61 $end
   $var wire 16 "/ _GEN_49 $end
   $var wire 4 "0 _GEN_40 $end
   $var wire 1 "1 _GEN_55 $end
   $var wire 4 "3 _GEN_3 $end
   $var wire 32 "5 _GEN_43 $end
   $var wire 1 "6 _GEN_37 $end
   $var wire 1 "8 _GEN_58 $end
   $var wire 4 "9 _GEN_22 $end
   $var wire 32 ": _GEN_64 $end
   $var wire 16 "; _GEN_31 $end
   $var wire 16 "< addressReg $end
   $var wire 32 "= _GEN_46 $end
   $var wire 32 "> _GEN_52 $end
   $var wire 32 "? _GEN_25 $end
  $upscope $end
$upscope $end
$enddefinitions $end
$dumpvars
0X
b0000000000000000 H
0"7
b00000000000000000000000000000000 <
0&
b0000000000000000 t
b00000000000000000000000000000000 ">
0o
b0000000000000000 B
0"1
b0000 "3
b0000000000000000 p
0V
b00000000000000000000000000000000 "2
b00000000000000000000000000000000 :
b0000000000000000 )
b0000000000000000 @
b0000000000000000 ";
b0000 }
0g
b00000000000000000000000000000000 h
b00000000000000000000000000000000 K
05
0")
b00000000000000000000000000000000 b
0a
0"@
b0000000000000000 4
0D
0"#
0x
b00000000000000000000000000000000 "*
b0000 "%
b00000000 P
0r
b00000000000000000000000000000000 A
0+
b00000000000000000000000000000000 "=
0"8
b0000 "0
b0000000000000000 `
b0000 T
b0000 ?
06
b0000 k
b0000000000000000 Z
0"4
b00000000000000000000000000000000 9
b0000000000000000 \
0l
0{
0f
0Q
b0000000000000000 "<
b0000000000000000 "'
b00000000000000000000000000000000 "5
1"-
b0000 /
0w
b0000000000000000 J
0E
00
0"$
0(
b00000000000000000000000000000000 "+
b0000000000000000 c
b0000000000000000 |
b00000000000000000000000000000000 [
b00000000000000000000000000000000 S
b00000000000000000000000000000000 "!
b00000000000000000000000000000000 >
b00000000000000000000000000000000 !
b0000 j
0q
0i
b0000 8
b0000000000000000 '
b00000000000000000000000000000000 #
b00000000000000000000000000000000 ":
b0000000000000000 ",
0N
b00000000000000000000000000000000 2
b0000 n
b0000000000000000 U
11
0e
b00000000000000000000000000000000 I
03
b0000000000000000 O
0-
b0000 G
b00000000000000000000000000000000 ^
b0000000000000000 y
b00000000000000000000000000000000 u
b0000000000000000 d
0_
b00000000000000000000000000000000 C
0"6
0Y
b0000000000000000 "/
b00000000000000000000000000000000 =
b00000000000000000000000000000000 "?
b00000000000000000000000000000000 ""
b00000000000000000000000000000000 "
0M
b0000 m
b0000 ".
b00000000000000000000000000000000 R
b0000000000000000 $
b0000 "(
b00000000000000000000000000000000 ~
b0000000000000000 ;
b00000000000000000000000000000000 L
0.
b0000 "9
b00000000000000000000000000000000 z
b00000000000000000000000000000000 ]
b0000000000000000 7
0"&
0*
0s
b0000000000000000 F
b00000000000000000000000000000000 W
0,
b00000000000000000000000000000000 %
b00000000000000000000000000000000 v
$end
#0
b0001 ?
1X
b0111 "3
b0111 G
1D
1"4
b00000000000000000000000000000001 z
b0111 "%
1o
b0111 m
#1
15
1"7
1*
1i
1"&
1a
1(
#6
05
0"7
0*
0i
0"&
0a
0(
#11
15
1"7
1*
1i
1"&
1a
1(
#16
05
0"7
0*
0i
0"&
0a
0(
#21
15
1"7
1*
1i
1"&
1a
1(
#26
05
0"7
0*
0i
0"&
0a
0(
#31
15
1"7
1*
1i
1"&
1a
1(
#36
05
0"7
0*
0i
0"&
0a
0(
#41
15
1"7
1*
1i
1"&
1a
1(
#46
1Q
1-
1"$
1g
05
0D
0"4
0o
0i
0"&
0a
0(
1V
0"7
0*
1+
1,
#51
15
1"7
1*
1i
1"&
1x
1a
1(
#56
b0000000000000001 c
05
0"7
0*
b0000000000000001 $
0i
0"&
0a
0(
b0000000000000001 |
b0000000000000001 t
#61
15
1"7
1*
1i
1"&
1a
1(
b0000000000000001 )
#66
b0000000000000010 c
05
0"7
0*
b0000000000000010 $
0i
0"&
0a
0(
b0000000000000010 |
b0000000000000010 t
#71
15
1"7
1*
1i
1"&
1a
1(
b0000000000000010 )
#76
b0000000000000011 c
05
0"7
0*
b0000000000000011 $
0i
0"&
0a
0(
b0000000000000011 |
b0000000000000011 t
#81
15
1"7
1*
1i
1"&
1a
1(
b0000000000000011 )
#86
b0000000000000100 c
05
0"7
0*
b0000000000000100 $
0i
0"&
0a
0(
b0000000000000100 |
b0000000000000100 t
#91
15
1"7
1*
1i
1"&
1a
1(
b0000000000000100 )
#96
b0000000000000101 c
05
0"7
0*
b0000000000000101 $
0i
0"&
0a
0(
b0000000000000101 |
b0000000000000101 t
#101
15
1"7
1*
1i
1"&
1a
1(
b0000000000000101 )
#106
b0000000000000110 c
05
0"7
0*
b0000000000000110 $
0i
0"&
0a
0(
b0000000000000110 |
b0000000000000110 t
#111
15
1"7
1*
1i
1"&
1a
1(
b0000000000000110 )
#116
b0000000000000111 c
05
0"7
0*
b0000000000000111 $
0i
0"&
0a
0(
b0000000000000111 |
b0000000000000111 t
#121
15
1"7
1*
1i
1"&
1a
1(
b0000000000000111 )
#126
b0000000000001000 c
05
0"7
0*
b0000000000001000 $
0i
0"&
0a
0(
b0000000000001000 |
b0000000000001000 t
#131
15
1"7
1*
1i
1"&
1a
1(
b0000000000001000 )
#136
b0000000000001001 c
05
0"7
0*
b0000000000001001 $
0i
0"&
0a
0(
b0000000000001001 |
b0000000000001001 t
#141
15
1"7
1*
1i
1"&
1a
1(
b0000000000001001 )
#146
b0000000000001010 c
05
0"7
0*
b0000000000001010 $
0i
0"&
0a
0(
b0000000000001010 |
b0000000000001010 t
#151
15
1"7
1*
1i
1"&
1a
1(
b0000000000001010 )
#156
b0000000000001011 c
05
0"7
0*
b0000000000001011 $
0i
0"&
0a
0(
b0000000000001011 |
b0000000000001011 t
#161
15
1"7
1*
1i
1"&
1a
1(
b0000000000001011 )
#166
b0000000000001100 c
05
0"7
0*
b0000000000001100 $
0i
0"&
0a
0(
b0000000000001100 |
b0000000000001100 t
#171
15
1"7
1*
1i
1"&
1a
1(
b0000000000001100 )
#176
b0000000000001101 c
05
0"7
0*
b0000000000001101 $
0i
0"&
0a
0(
b0000000000001101 |
b0000000000001101 t
#181
15
1"7
1*
1i
1"&
1a
1(
b0000000000001101 )
#186
b0000000000001110 c
05
0"7
0*
b0000000000001110 $
0i
0"&
0a
0(
b0000000000001110 |
b0000000000001110 t
#191
15
1"7
1*
1i
1"&
1a
1(
b0000000000001110 )
#196
b0000000000001111 c
05
0"7
0*
b0000000000001111 $
0i
0"&
0a
0(
b0000000000001111 |
b0000000000001111 t
#201
15
1"7
1*
1i
1"&
1a
1(
b0000000000001111 )
#206
b0000000000010000 c
05
0"7
0*
b0000000000010000 $
0i
0"&
0a
0(
b0000000000010000 |
b0000000000010000 t
#211
15
1"7
1*
1i
1"&
1a
1(
b0000000000010000 )
#216
b0000000000010001 c
05
0"7
0*
b0000000000010001 $
0i
0"&
0a
0(
b0000000000010001 |
b0000000000010001 t
#221
15
1"7
1*
1i
1"&
1a
1(
b0000000000010001 )
#226
b0000000000010010 c
05
0"7
0*
b0000000000010010 $
0i
0"&
0a
0(
b0000000000010010 |
b0000000000010010 t
#231
15
1"7
1*
1i
1"&
1a
1(
b0000000000010010 )
#236
b0000000000010011 c
05
0"7
0*
b0000000000010011 $
0i
0"&
0a
0(
b0000000000010011 |
b0000000000010011 t
#241
15
1"7
1*
1i
1"&
1a
1(
b0000000000010011 )
#246
b0000000000010100 c
05
0"7
0*
b0000000000010100 $
0i
0"&
0a
0(
b0000000000010100 |
b0000000000010100 t
#251
15
1"7
1*
1i
1"&
1a
1(
b0000000000010100 )
#256
b0000000000010101 c
05
0"7
0*
b0000000000010101 $
0i
0"&
0a
0(
b0000000000010101 |
b0000000000010101 t
#261
15
1"7
1*
1i
1"&
1a
1(
b0000000000010101 )
#266
b0000000000010110 c
05
0"7
0*
b0000000000010110 $
0i
0"&
0a
0(
b0000000000010110 |
b0000000000010110 t
#271
15
1"7
1*
1i
1"&
1a
1(
b0000000000010110 )
#276
b0000000000010111 c
05
0"7
0*
b0000000000010111 $
0i
0"&
0a
0(
b0000000000010111 |
b0000000000010111 t
#281
15
1"7
1*
1i
1"&
1a
1(
b0000000000010111 )
#286
b0000000000011000 c
05
0"7
0*
b0000000000011000 $
0i
0"&
0a
0(
b0000000000011000 |
b0000000000011000 t
#291
15
1"7
1*
1i
1"&
1a
1(
b0000000000011000 )
#296
b0000000000011001 c
05
0"7
0*
b0000000000011001 $
0i
0"&
0a
0(
b0000000000011001 |
b0000000000011001 t
#301
15
1"7
1*
1i
1"&
1a
1(
b0000000000011001 )
#306
b0000000000011010 c
05
0"7
0*
b0000000000011010 $
0i
0"&
0a
0(
b0000000000011010 |
b0000000000011010 t
#311
15
1"7
1*
1i
1"&
1a
1(
b0000000000011010 )
#316
b0000000000011011 c
05
0"7
0*
b0000000000011011 $
0i
0"&
0a
0(
b0000000000011011 |
b0000000000011011 t
#321
15
1"7
1*
1i
1"&
1a
1(
b0000000000011011 )
#326
b0000000000011100 c
05
0"7
0*
b0000000000011100 $
0i
0"&
0a
0(
b0000000000011100 |
b0000000000011100 t
#331
15
1"7
1*
1i
1"&
1a
1(
b0000000000011100 )
#336
b0000000000011101 c
05
0"7
0*
b0000000000011101 $
0i
0"&
0a
0(
b0000000000011101 |
b0000000000011101 t
#341
15
1"7
1*
1i
1"&
1a
1(
b0000000000011101 )
#346
b0000000000011110 c
05
0"7
0*
b0000000000011110 $
0i
0"&
0a
0(
b0000000000011110 |
b0000000000011110 t
#351
15
1"7
1*
1i
1"&
1a
1(
b0000000000011110 )
#356
b0000000000011111 c
05
0"7
0*
b0000000000011111 $
0i
0"&
0a
0(
b0000000000011111 |
b0000000000011111 t
#361
15
1"7
1*
1i
1"&
1a
1(
b0000000000011111 )
#366
b0000000000100000 c
05
0"7
0*
b0000000000100000 $
0i
0"&
0a
0(
b0000000000100000 |
b0000000000100000 t
#371
15
1"7
1*
1i
1"&
1a
1(
b0000000000100000 )
#376
b0000000000100001 c
05
0"7
0*
b0000000000100001 $
0i
0"&
0a
0(
b0000000000100001 |
b0000000000100001 t
#381
15
1"7
1*
1i
1"&
1a
1(
b0000000000100001 )
#386
b0000000000100010 c
05
0"7
0*
b0000000000100010 $
0i
0"&
0a
0(
b0000000000100010 |
b0000000000100010 t
#391
15
1"7
1*
1i
1"&
1a
1(
b0000000000100010 )
#396
b0000000000100011 c
05
0"7
0*
b0000000000100011 $
0i
0"&
0a
0(
b0000000000100011 |
b0000000000100011 t
#401
15
1"7
1*
1i
1"&
1a
1(
b0000000000100011 )
#406
b0000000000100100 c
05
0"7
0*
b0000000000100100 $
0i
0"&
0a
0(
b0000000000100100 |
b0000000000100100 t
#411
15
1"7
1*
1i
1"&
1a
1(
b0000000000100100 )
#416
b0000000000100101 c
05
0"7
0*
b0000000000100101 $
0i
0"&
0a
0(
b0000000000100101 |
b0000000000100101 t
#421
15
1"7
1*
1i
1"&
1a
1(
b0000000000100101 )
#426
b0000000000100110 c
05
0"7
0*
b0000000000100110 $
0i
0"&
0a
0(
b0000000000100110 |
b0000000000100110 t
#431
15
1"7
1*
1i
1"&
1a
1(
b0000000000100110 )
#436
b0000000000100111 c
05
0"7
0*
b0000000000100111 $
0i
0"&
0a
0(
b0000000000100111 |
b0000000000100111 t
#441
15
1"7
1*
1i
1"&
1a
1(
b0000000000100111 )
#446
b0000000000101000 c
05
0"7
0*
b0000000000101000 $
0i
0"&
0a
0(
b0000000000101000 |
b0000000000101000 t
#451
15
1"7
1*
1i
1"&
1a
1(
b0000000000101000 )
#456
b0000000000101001 c
05
0"7
0*
b0000000000101001 $
0i
0"&
0a
0(
b0000000000101001 |
b0000000000101001 t
#461
15
1"7
1*
1i
1"&
1a
1(
b0000000000101001 )
#466
b0000000000101010 c
05
0"7
0*
b0000000000101010 $
0i
0"&
0a
0(
b0000000000101010 |
b0000000000101010 t
#471
15
1"7
1*
1i
1"&
1a
1(
b0000000000101010 )
#476
b0000000000101011 c
05
0"7
0*
b0000000000101011 $
0i
0"&
0a
0(
b0000000000101011 |
b0000000000101011 t
#481
15
1"7
1*
1i
1"&
1a
1(
b0000000000101011 )
#486
b0000000000101100 c
05
0"7
0*
b0000000000101100 $
0i
0"&
0a
0(
b0000000000101100 |
b0000000000101100 t
#491
15
1"7
1*
1i
1"&
1a
1(
b0000000000101100 )
#496
b0000000000101101 c
05
0"7
0*
b0000000000101101 $
0i
0"&
0a
0(
b0000000000101101 |
b0000000000101101 t
#501
15
1"7
1*
1i
1"&
1a
1(
b0000000000101101 )
#506
b0000000000101110 c
05
0"7
0*
b0000000000101110 $
0i
0"&
0a
0(
b0000000000101110 |
b0000000000101110 t
#511
15
1"7
1*
1i
1"&
1a
1(
b0000000000101110 )
#516
b0000000000101111 c
05
0"7
0*
b0000000000101111 $
0i
0"&
0a
0(
b0000000000101111 |
b0000000000101111 t
#521
15
1"7
1*
1i
1"&
1a
1(
b0000000000101111 )
#526
b0000000000110000 c
05
0"7
0*
b0000000000110000 $
0i
0"&
0a
0(
b0000000000110000 |
b0000000000110000 t
#531
15
1"7
1*
1i
1"&
1a
1(
b0000000000110000 )
#536
b0000000000110001 c
05
0"7
0*
b0000000000110001 $
0i
0"&
0a
0(
b0000000000110001 |
b0000000000110001 t
#541
15
1"7
1*
1i
1"&
1a
1(
b0000000000110001 )
#546
b0000000000110010 c
05
0"7
0*
b0000000000110010 $
0i
0"&
0a
0(
b0000000000110010 |
b0000000000110010 t
#551
15
1"7
1*
1i
1"&
1a
1(
b0000000000110010 )
#556
b0000000000110011 c
05
0"7
0*
b0000000000110011 $
0i
0"&
0a
0(
b0000000000110011 |
b0000000000110011 t
#561
15
1"7
1*
1i
1"&
1a
1(
b0000000000110011 )
#566
b0000000000110100 c
05
0"7
0*
b0000000000110100 $
0i
0"&
0a
0(
b0000000000110100 |
b0000000000110100 t
#571
15
1"7
1*
1i
1"&
1a
1(
b0000000000110100 )
#576
b0000000000110101 c
05
0"7
0*
b0000000000110101 $
0i
0"&
0a
0(
b0000000000110101 |
b0000000000110101 t
#581
15
1"7
1*
1i
1"&
1a
1(
b0000000000110101 )
#586
b0000000000110110 c
05
0"7
0*
b0000000000110110 $
0i
0"&
0a
0(
b0000000000110110 |
b0000000000110110 t
#591
15
1"7
1*
1i
1"&
1a
1(
b0000000000110110 )
#596
b0000000000110111 c
05
0"7
0*
b0000000000110111 $
0i
0"&
0a
0(
b0000000000110111 |
b0000000000110111 t
#601
15
1"7
1*
1i
1"&
1a
1(
b0000000000110111 )
#606
b0000000000111000 c
05
0"7
0*
b0000000000111000 $
0i
0"&
0a
0(
b0000000000111000 |
b0000000000111000 t
#611
15
1"7
1*
1i
1"&
1a
1(
b0000000000111000 )
#616
b0000000000111001 c
05
0"7
0*
b0000000000111001 $
0i
0"&
0a
0(
b0000000000111001 |
b0000000000111001 t
#621
15
1"7
1*
1i
1"&
1a
1(
b0000000000111001 )
#626
b0000000000111010 c
05
0"7
0*
b0000000000111010 $
0i
0"&
0a
0(
b0000000000111010 |
b0000000000111010 t
#631
15
1"7
1*
1i
1"&
1a
1(
b0000000000111010 )
#636
b0000000000111011 c
05
0"7
0*
b0000000000111011 $
0i
0"&
0a
0(
b0000000000111011 |
b0000000000111011 t
#641
15
1"7
1*
1i
1"&
1a
1(
b0000000000111011 )
#646
b0000000000111100 c
05
0"7
0*
b0000000000111100 $
0i
0"&
0a
0(
b0000000000111100 |
b0000000000111100 t
#651
15
1"7
1*
1i
1"&
1a
1(
b0000000000111100 )
#656
b0000000000111101 c
05
0"7
0*
b0000000000111101 $
0i
0"&
0a
0(
b0000000000111101 |
b0000000000111101 t
#661
15
1"7
1*
1i
1"&
1a
1(
b0000000000111101 )
#666
b0000000000111110 c
05
0"7
0*
b0000000000111110 $
0i
0"&
0a
0(
b0000000000111110 |
b0000000000111110 t
#671
15
1"7
1*
1i
1"&
1a
1(
b0000000000111110 )
#676
b0000000000111111 c
05
0"7
0*
b0000000000111111 $
0i
0"&
0a
0(
b0000000000111111 |
b0000000000111111 t
#681
15
1"7
1*
1i
1"&
1a
1(
b0000000000111111 )
#686
b0000000001000000 c
05
0"7
0*
b0000000001000000 $
0i
0"&
0a
0(
b0000000001000000 |
b0000000001000000 t
#691
15
1"7
1*
1i
1"&
1a
1(
b0000000001000000 )
#696
b0000000001000001 c
05
0"7
0*
b0000000001000001 $
0i
0"&
0a
0(
b0000000001000001 |
b0000000001000001 t
#701
15
1"7
1*
1i
1"&
1a
1(
b0000000001000001 )
#706
b0000000001000010 c
05
0"7
0*
b0000000001000010 $
0i
0"&
0a
0(
b0000000001000010 |
b0000000001000010 t
#711
15
1"7
1*
1i
1"&
1a
1(
b0000000001000010 )
#716
b0000000001000011 c
05
0"7
0*
b0000000001000011 $
0i
0"&
0a
0(
b0000000001000011 |
b0000000001000011 t
#721
15
1"7
1*
1i
1"&
1a
1(
b0000000001000011 )
#726
b0000000001000100 c
05
0"7
0*
b0000000001000100 $
0i
0"&
0a
0(
b0000000001000100 |
b0000000001000100 t
#731
15
1"7
1*
1i
1"&
1a
1(
b0000000001000100 )
#736
b0000000001000101 c
05
0"7
0*
b0000000001000101 $
0i
0"&
0a
0(
b0000000001000101 |
b0000000001000101 t
#741
15
1"7
1*
1i
1"&
1a
1(
b0000000001000101 )
#746
b0000000001000110 c
05
0"7
0*
b0000000001000110 $
0i
0"&
0a
0(
b0000000001000110 |
b0000000001000110 t
#751
15
1"7
1*
1i
1"&
1a
1(
b0000000001000110 )
#756
b0000000001000111 c
05
0"7
0*
b0000000001000111 $
0i
0"&
0a
0(
b0000000001000111 |
b0000000001000111 t
#761
15
1"7
1*
1i
1"&
1a
1(
b0000000001000111 )
#766
b0000000001001000 c
05
0"7
0*
b0000000001001000 $
0i
0"&
0a
0(
b0000000001001000 |
b0000000001001000 t
#771
15
1"7
1*
1i
1"&
1a
1(
b0000000001001000 )
#776
b0000000001001001 c
05
0"7
0*
b0000000001001001 $
0i
0"&
0a
0(
b0000000001001001 |
b0000000001001001 t
#781
15
1"7
1*
1i
1"&
1a
1(
b0000000001001001 )
#786
b0000000001001010 c
05
0"7
0*
b0000000001001010 $
0i
0"&
0a
0(
b0000000001001010 |
b0000000001001010 t
#791
15
1"7
1*
1i
1"&
1a
1(
b0000000001001010 )
#796
b0000000001001011 c
05
0"7
0*
b0000000001001011 $
0i
0"&
0a
0(
b0000000001001011 |
b0000000001001011 t
#801
15
1"7
1*
1i
1"&
1a
1(
b0000000001001011 )
#806
b0000000001001100 c
05
0"7
0*
b0000000001001100 $
0i
0"&
0a
0(
b0000000001001100 |
b0000000001001100 t
#811
15
1"7
1*
1i
1"&
1a
1(
b0000000001001100 )
#816
b0000000001001101 c
05
0"7
0*
b0000000001001101 $
0i
0"&
0a
0(
b0000000001001101 |
b0000000001001101 t
#821
15
1"7
1*
1i
1"&
1a
1(
b0000000001001101 )
#826
b0000000001001110 c
05
0"7
0*
b0000000001001110 $
0i
0"&
0a
0(
b0000000001001110 |
b0000000001001110 t
#831
15
1"7
1*
1i
1"&
1a
1(
b0000000001001110 )
#836
b0000000001001111 c
05
0"7
0*
b0000000001001111 $
0i
0"&
0a
0(
b0000000001001111 |
b0000000001001111 t
#841
15
1"7
1*
1i
1"&
1a
1(
b0000000001001111 )
#846
b0000000001010000 c
05
0"7
0*
b0000000001010000 $
0i
0"&
0a
0(
b0000000001010000 |
b0000000001010000 t
#851
15
1"7
1*
1i
1"&
1a
1(
b0000000001010000 )
#856
b0000000001010001 c
05
0"7
0*
b0000000001010001 $
0i
0"&
0a
0(
b0000000001010001 |
b0000000001010001 t
#861
15
1"7
1*
1i
1"&
1a
1(
b0000000001010001 )
#866
b0000000001010010 c
05
0"7
0*
b0000000001010010 $
0i
0"&
0a
0(
b0000000001010010 |
b0000000001010010 t
#871
15
1"7
1*
1i
1"&
1a
1(
b0000000001010010 )
#876
b0000000001010011 c
05
0"7
0*
b0000000001010011 $
0i
0"&
0a
0(
b0000000001010011 |
b0000000001010011 t
#881
15
1"7
1*
1i
1"&
1a
1(
b0000000001010011 )
#886
b0000000001010100 c
05
0"7
0*
b0000000001010100 $
0i
0"&
0a
0(
b0000000001010100 |
b0000000001010100 t
#891
15
1"7
1*
1i
1"&
1a
1(
b0000000001010100 )
#896
b0000000001010101 c
05
0"7
0*
b0000000001010101 $
0i
0"&
0a
0(
b0000000001010101 |
b0000000001010101 t
#901
15
1"7
1*
1i
1"&
1a
1(
b0000000001010101 )
#906
b0000000001010110 c
05
0"7
0*
b0000000001010110 $
0i
0"&
0a
0(
b0000000001010110 |
b0000000001010110 t
#911
15
1"7
1*
1i
1"&
1a
1(
b0000000001010110 )
#916
b0000000001010111 c
05
0"7
0*
b0000000001010111 $
0i
0"&
0a
0(
b0000000001010111 |
b0000000001010111 t
#921
15
1"7
1*
1i
1"&
1a
1(
b0000000001010111 )
#926
b0000000001011000 c
05
0"7
0*
b0000000001011000 $
0i
0"&
0a
0(
b0000000001011000 |
b0000000001011000 t
#931
15
1"7
1*
1i
1"&
1a
1(
b0000000001011000 )
#936
b0000000001011001 c
05
0"7
0*
b0000000001011001 $
0i
0"&
0a
0(
b0000000001011001 |
b0000000001011001 t
#941
15
1"7
1*
1i
1"&
1a
1(
b0000000001011001 )
#946
b0000000001011010 c
05
0"7
0*
b0000000001011010 $
0i
0"&
0a
0(
b0000000001011010 |
b0000000001011010 t
#951
15
1"7
1*
1i
1"&
1a
1(
b0000000001011010 )
#956
b0000000001011011 c
05
0"7
0*
b0000000001011011 $
0i
0"&
0a
0(
b0000000001011011 |
b0000000001011011 t
#961
15
1"7
1*
1i
1"&
1a
1(
b0000000001011011 )
#966
b0000000001011100 c
05
0"7
0*
b0000000001011100 $
0i
0"&
0a
0(
b0000000001011100 |
b0000000001011100 t
#971
15
1"7
1*
1i
1"&
1a
1(
b0000000001011100 )
#976
b0000000001011101 c
05
0"7
0*
b0000000001011101 $
0i
0"&
0a
0(
b0000000001011101 |
b0000000001011101 t
#981
15
1"7
1*
1i
1"&
1a
1(
b0000000001011101 )
#986
b0000000001011110 c
05
0"7
0*
b0000000001011110 $
0i
0"&
0a
0(
b0000000001011110 |
b0000000001011110 t
#991
15
1"7
1*
1i
1"&
1a
1(
b0000000001011110 )
#996
b0000000001011111 c
05
0"7
0*
b0000000001011111 $
0i
0"&
0a
0(
b0000000001011111 |
b0000000001011111 t
#1001
15
1"7
1*
1i
1"&
1a
1(
b0000000001011111 )
#1006
b0000000001100000 c
05
0"7
0*
b0000000001100000 $
0i
0"&
0a
0(
b0000000001100000 |
b0000000001100000 t
#1011
15
1"7
1*
1i
1"&
1a
1(
b0000000001100000 )
#1016
b0000000001100001 c
05
0"7
0*
b0000000001100001 $
0i
0"&
0a
0(
b0000000001100001 |
b0000000001100001 t
#1021
15
1"7
1*
1i
1"&
1a
1(
b0000000001100001 )
#1026
b0000000001100010 c
05
0"7
0*
b0000000001100010 $
0i
0"&
0a
0(
b0000000001100010 |
b0000000001100010 t
#1031
15
1"7
1*
1i
1"&
1a
1(
b0000000001100010 )
#1036
b0000000001100011 c
05
0"7
0*
b0000000001100011 $
0i
0"&
0a
0(
b0000000001100011 |
b0000000001100011 t
#1041
15
1"7
1*
1i
1"&
1a
1(
b0000000001100011 )
#1046
b0000000001100100 c
05
0"7
0*
b0000000001100100 $
0i
0"&
0a
0(
b0000000001100100 |
b0000000001100100 t
#1051
15
1"7
1*
1i
1"&
1a
1(
b0000000001100100 )
#1056
b0000000001100101 c
05
0"7
0*
b0000000001100101 $
0i
0"&
0a
0(
b0000000001100101 |
b0000000001100101 t
#1061
15
1"7
1*
1i
1"&
1a
1(
b0000000001100101 )
#1066
b0000000001100110 c
05
0"7
0*
b0000000001100110 $
0i
0"&
0a
0(
b0000000001100110 |
b0000000001100110 t
#1071
15
1"7
1*
1i
1"&
1a
1(
b0000000001100110 )
#1076
b0000000001100111 c
05
0"7
0*
b0000000001100111 $
0i
0"&
0a
0(
b0000000001100111 |
b0000000001100111 t
#1081
15
1"7
1*
1i
1"&
1a
1(
b0000000001100111 )
#1086
b0000000001101000 c
05
0"7
0*
b0000000001101000 $
0i
0"&
0a
0(
b0000000001101000 |
b0000000001101000 t
#1091
15
1"7
1*
1i
1"&
1a
1(
b0000000001101000 )
#1096
b0000000001101001 c
05
0"7
0*
b0000000001101001 $
0i
0"&
0a
0(
b0000000001101001 |
b0000000001101001 t
#1101
15
1"7
1*
1i
1"&
1a
1(
b0000000001101001 )
#1106
b0000000001101010 c
05
0"7
0*
b0000000001101010 $
0i
0"&
0a
0(
b0000000001101010 |
b0000000001101010 t
#1111
15
1"7
1*
1i
1"&
1a
1(
b0000000001101010 )
#1116
b0000000001101011 c
05
0"7
0*
b0000000001101011 $
0i
0"&
0a
0(
b0000000001101011 |
b0000000001101011 t
#1121
15
1"7
1*
1i
1"&
1a
1(
b0000000001101011 )
#1126
b0000000001101100 c
05
0"7
0*
b0000000001101100 $
0i
0"&
0a
0(
b0000000001101100 |
b0000000001101100 t
#1131
15
1"7
1*
1i
1"&
1a
1(
b0000000001101100 )
#1136
b0000000001101101 c
05
0"7
0*
b0000000001101101 $
0i
0"&
0a
0(
b0000000001101101 |
b0000000001101101 t
#1141
15
1"7
1*
1i
1"&
1a
1(
b0000000001101101 )
