generated/SystemTop.vcd
$date
2021-12-01T13:42+0000
$end
$version
0.2
$end
$comment

$end
$timescale 1ns  $end
$scope module SystemTop $end
 $var wire 32 # io_testerDataMemDataRead $end
 $var wire 1 . io_testerDataMemWriteEnable $end
 $var wire 32 L io_testerDataMemDataWrite $end
 $var wire 1 M io_start $end
 $var wire 1 V io_testerDataMemEnable $end
 $var wire 1 f clock $end
 $var wire 1 o dataMemory $end
 $var wire 16 p io_testerDataMemAddress $end
 $var wire 1 s accelerator $end
 $var wire 1 v io_done $end
 $var wire 1 ", reset $end
  $scope module dataMemory $end
   $var wire 32 ! _GEN_11 $end
   $var wire 32 & io_testerDataWrite $end
   $var wire 1 , clock $end
   $var wire 1 / io_testerEnable $end
   $var wire 32 ; io_dataRead $end
   $var wire 32 < io_dataWrite $end
   $var wire 1 Q io_testerWriteEnable $end
   $var wire 32 S _GEN_5 $end
   $var wire 16 b io_address $end
   $var wire 1 c io_writeEnable $end
   $var wire 16 w io_testerAddress $end
   $var wire 32 x memory $end
   $var wire 32 "% io_testerDataRead $end
    $scope module memory $end
      $scope module _T_1 $end
       $var wire 16 % addr $end
       $var wire 16 + pipeline_addr_0 $end
       $var wire 1 0 en $end
       $var wire 32 I data $end
       $var wire 32 ^ pipeline_data_0 $end
       $var wire 1 t pipeline_valid_0 $end
       $var wire 1 | valid $end
       $var wire 1 "& mask $end
       $var wire 1 "/ clk $end
      $upscope $end
      $scope module _T $end
       $var wire 1 ) clk $end
       $var wire 16 a addr $end
       $var wire 1 d en $end
       $var wire 32 "* data $end
      $upscope $end
      $scope module _T_3 $end
       $var wire 1 1 pipeline_valid_0 $end
       $var wire 1 2 en $end
       $var wire 1 3 mask $end
       $var wire 16 6 pipeline_addr_0 $end
       $var wire 16 O addr $end
       $var wire 1 ` clk $end
       $var wire 32 q pipeline_data_0 $end
       $var wire 32 z data $end
       $var wire 1 "9 valid $end
      $upscope $end
      $scope module _T_2 $end
       $var wire 1 7 clk $end
       $var wire 16 = addr $end
       $var wire 32 [ data $end
       $var wire 1 k en $end
      $upscope $end
    $upscope $end
  $upscope $end
  $scope module accelerator $end
   $var wire 32 " _GEN_2 $end
   $var wire 3 $ _GEN_13 $end
   $var wire 32 ' _GEN_34 $end
   $var wire 1 ( _GEN_28 $end
   $var wire 3 * _GEN_5 $end
   $var wire 16 - _GEN_16 $end
   $var wire 32 4 dataReg $end
   $var wire 32 5 _GEN_51 $end
   $var wire 32 8 _GEN_48 $end
   $var wire 16 9 _GEN_54 $end
   $var wire 16 : _GEN_33 $end
   $var wire 32 > _GEN_60 $end
   $var wire 3 ? _GEN_57 $end
   $var wire 3 @ _GEN_15 $end
   $var wire 1 A _GEN_42 $end
   $var wire 16 B _GEN_36 $end
   $var wire 1 C _GEN_21 $end
   $var wire 1 D reset $end
   $var wire 32 E _GEN_30 $end
   $var wire 3 F _GEN_24 $end
   $var wire 3 G _GEN_7 $end
   $var wire 16 H _GEN_18 $end
   $var wire 3 J _GEN_45 $end
   $var wire 1 K _GEN_39 $end
   $var wire 32 N _GEN_27 $end
   $var wire 32 P _GEN_12 $end
   $var wire 32 R counter $end
   $var wire 3 T stateReg $end
   $var wire 16 U _GEN_1 $end
   $var wire 32 W _GEN_4 $end
   $var wire 1 X _T $end
   $var wire 32 Y _GEN_62 $end
   $var wire 1 Z _GEN_56 $end
   $var wire 3 \ _GEN_38 $end
   $var wire 16 ] _GEN_50 $end
   $var wire 32 _ _GEN_44 $end
   $var wire 1 e _GEN_32 $end
   $var wire 1 g _GEN_53 $end
   $var wire 16 h _GEN_47 $end
   $var wire 1 i io_done $end
   $var wire 16 j _GEN_26 $end
   $var wire 1 l _GEN_35 $end
   $var wire 1 m io_writeEnable $end
   $var wire 32 n _GEN_41 $end
   $var wire 16 r _GEN_29 $end
   $var wire 3 u _GEN_20 $end
   $var wire 32 y io_dataWrite $end
   $var wire 32 { _GEN_23 $end
   $var wire 3 } _GEN_9 $end
   $var wire 1 ~ clock $end
   $var wire 16 "! io_address $end
   $var wire 3 "" _GEN_0 $end
   $var wire 1 "# io_start $end
   $var wire 32 "$ io_dataRead $end
   $var wire 1 "' _GEN_49 $end
   $var wire 16 "( _GEN_40 $end
   $var wire 32 ") _GEN_55 $end
   $var wire 3 "+ _GEN_3 $end
   $var wire 16 "- _GEN_43 $end
   $var wire 32 ". _GEN_37 $end
   $var wire 16 "0 _GEN_58 $end
   $var wire 16 "1 _GEN_22 $end
   $var wire 3 "2 _GEN_31 $end
   $var wire 16 "3 addressReg $end
   $var wire 1 "4 _GEN_46 $end
   $var wire 3 "5 _GEN_52 $end
   $var wire 8 "6 _GEN_10 $end
   $var wire 1 "7 _GEN_25 $end
   $var wire 32 "8 _GEN_19 $end
  $upscope $end
$upscope $end
$enddefinitions $end
$dumpvars
b0000000000000000 ]
0X
0C
0"7
b00000000000000000000000000000000 Y
b0000000000000000 +
b00000000000000000000000000000000 '
b000 G
b00000000000000000000000000000000 <
b0000000000000000 H
b00000000000000000000000000000000 n
b000 *
0o
b0000000000000000 "0
13
b0000000000000000 B
b0000000000000000 a
b000 }
b00000000000000000000000000000000 "8
b000 u
b0000000000000000 p
0V
0m
b000 \
b000 ?
b000 "2
0g
b00000000000000000000000000000000 ".
b0000000000000000 :
b0000000000000000 %
0~
b000 $
b00000000000000000000000000000000 E
0/
0"#
0D
b00000000000000000000000000000000 "*
b0000000000000000 "1
0)
b0000000000000000 b
b0000000000000000 "-
1"&
b00000000000000000000000000000000 ;
0v
b00000000000000000000000000000000 q
b0000000000000000 w
0"4
0l
b000 ""
b00000000000000000000000000000000 P
0f
0Q
b0000000000000000 9
0`
00
0(
b00000000000000000000000000000000 _
b00000000000000000000000000000000 "%
b000 "+
0Z
b00000000000000000000000000000000 [
0"9
b00000000000000000000000000000000 S
b0000000000000000 -
b0000000000000000 "(
b00000000000000000000000000000000 >
b00000000000000000000000000000000 !
0i
07
b00000000000000000000000000000000 #
b00000000000000000000000000000000 8
0k
b0000000000000000 r
b0000000000000000 U
0e
0"/
b00000000000000000000000000000000 I
b00000000000000000000000000000000 4
0"'
b000 T
0|
b0000000000000000 O
b00000000000000000000000000000000 y
0c
b0000000000000000 h
b0000000000000000 6
01
b0000000000000000 j
b00000000000000000000000000000000 {
b00000000000000000000000000000000 ^
b0000000000000000 "3
b00000000000000000000000000000000 "$
0t
b00000000000000000000000000000000 &
b000 F
b000 J
b00000000000000000000000000000000 "
0M
b00000000000000000000000000000000 N
0",
b0000000000000000 =
0d
02
b00000000000000000000000000000000 R
b00000000000000000000000000000000 5
b000 @
b00000000 "6
b00000000000000000000000000000000 L
0K
b0000000000000000 "!
0.
b000 "5
b00000000000000000000000000000000 x
b00000000000000000000000000000000 ")
b00000000000000000000000000000000 z
0s
b00000000000000000000000000000000 W
0A
0,
$end
#0
1",
1X
1k
1D
b110 }
b110 G
b110 *
b001 $
b00000000000000000000000000000001 P
b110 "+
#1
1f
1`
1"/
1~
17
1,
1)
#6
0f
0`
0"/
0~
07
0,
0)
#11
1f
1`
1"/
1~
17
1,
1)
#16
0f
0`
0"/
0~
07
0,
0)
#21
1f
1`
1"/
1~
17
1,
1)
#26
0f
0`
0"/
0~
07
0,
0)
#31
1f
1`
1"/
1~
17
1,
1)
#36
0f
0`
0"/
0~
07
0,
0)
#41
1f
1`
1"/
1~
17
1,
1)
#46
0f
1Q
0`
0",
1.
0D
0~
07
1/
0)
10
0"/
1d
0k
1V
1|
0,
#51
1f
1`
1"/
1~
17
1,
1t
1)
#56
0f
0`
0"/
b0000000000000001 %
b0000000000000001 w
0~
b0000000000000001 a
b0000000000000001 p
07
0,
0)
#61
1f
1`
1"/
1~
b0000000000000001 +
17
1,
1)
#66
0f
0`
0"/
b0000000000000010 %
b0000000000000010 w
0~
b0000000000000010 a
b0000000000000010 p
07
0,
0)
#71
1f
1`
1"/
1~
b0000000000000010 +
17
1,
1)
#76
0f
0`
0"/
b0000000000000011 %
b0000000000000011 w
0~
b0000000000000011 a
b0000000000000011 p
07
0,
0)
#81
1f
1`
1"/
1~
b0000000000000011 +
17
1,
1)
#86
0f
0`
0"/
b0000000000000100 %
b0000000000000100 w
0~
b0000000000000100 a
b0000000000000100 p
07
0,
0)
#91
1f
1`
1"/
1~
b0000000000000100 +
17
1,
1)
#96
0f
0`
0"/
b0000000000000101 %
b0000000000000101 w
0~
b0000000000000101 a
b0000000000000101 p
07
0,
0)
#101
1f
1`
1"/
1~
b0000000000000101 +
17
1,
1)
#106
0f
0`
0"/
b0000000000000110 %
b0000000000000110 w
0~
b0000000000000110 a
b0000000000000110 p
07
0,
0)
#111
1f
1`
1"/
1~
b0000000000000110 +
17
1,
1)
#116
0f
0`
0"/
b0000000000000111 %
b0000000000000111 w
0~
b0000000000000111 a
b0000000000000111 p
07
0,
0)
#121
1f
1`
1"/
1~
b0000000000000111 +
17
1,
1)
#126
0f
0`
0"/
b0000000000001000 %
b0000000000001000 w
0~
b0000000000001000 a
b0000000000001000 p
07
0,
0)
#131
1f
1`
1"/
1~
b0000000000001000 +
17
1,
1)
#136
0f
0`
0"/
b0000000000001001 %
b0000000000001001 w
0~
b0000000000001001 a
b0000000000001001 p
07
0,
0)
#141
1f
1`
1"/
1~
b0000000000001001 +
17
1,
1)
#146
0f
0`
0"/
b0000000000001010 %
b0000000000001010 w
0~
b0000000000001010 a
b0000000000001010 p
07
0,
0)
#151
1f
1`
1"/
1~
b0000000000001010 +
17
1,
1)
#156
0f
0`
0"/
b0000000000001011 %
b0000000000001011 w
0~
b0000000000001011 a
b0000000000001011 p
07
0,
0)
#161
1f
1`
1"/
1~
b0000000000001011 +
17
1,
1)
#166
0f
0`
0"/
b0000000000001100 %
b0000000000001100 w
0~
b0000000000001100 a
b0000000000001100 p
07
0,
0)
#171
1f
1`
1"/
1~
b0000000000001100 +
17
1,
1)
#176
0f
0`
0"/
b0000000000001101 %
b0000000000001101 w
0~
b0000000000001101 a
b0000000000001101 p
07
0,
0)
#181
1f
1`
1"/
1~
b0000000000001101 +
17
1,
1)
#186
0f
0`
0"/
b0000000000001110 %
b0000000000001110 w
0~
b0000000000001110 a
b0000000000001110 p
07
0,
0)
#191
1f
1`
1"/
1~
b0000000000001110 +
17
1,
1)
#196
0f
0`
0"/
b0000000000001111 %
b0000000000001111 w
0~
b0000000000001111 a
b0000000000001111 p
07
0,
0)
#201
1f
1`
1"/
1~
b0000000000001111 +
17
1,
1)
#206
0f
0`
0"/
b0000000000010000 %
b0000000000010000 w
0~
b0000000000010000 a
b0000000000010000 p
07
0,
0)
#211
1f
1`
1"/
1~
b0000000000010000 +
17
1,
1)
#216
0f
0`
0"/
b0000000000010001 %
b0000000000010001 w
0~
b0000000000010001 a
b0000000000010001 p
07
0,
0)
#221
1f
1`
1"/
1~
b0000000000010001 +
17
1,
1)
#226
0f
0`
0"/
b0000000000010010 %
b0000000000010010 w
0~
b0000000000010010 a
b0000000000010010 p
07
0,
0)
#231
1f
1`
1"/
1~
b0000000000010010 +
17
1,
1)
#236
0f
0`
0"/
b0000000000010011 %
b0000000000010011 w
0~
b0000000000010011 a
b0000000000010011 p
07
0,
0)
#241
1f
1`
1"/
1~
b0000000000010011 +
17
1,
1)
#246
0f
0`
0"/
b0000000000010100 %
b0000000000010100 w
0~
b0000000000010100 a
b0000000000010100 p
07
0,
0)
#251
1f
1`
1"/
1~
b0000000000010100 +
17
1,
1)
#256
0f
0`
0"/
b0000000000010101 %
b0000000000010101 w
0~
b0000000000010101 a
b0000000000010101 p
07
0,
0)
#261
1f
1`
1"/
1~
b0000000000010101 +
17
1,
1)
#266
0f
0`
0"/
b0000000000010110 %
b0000000000010110 w
0~
b0000000000010110 a
b0000000000010110 p
07
0,
0)
#271
1f
1`
1"/
1~
b0000000000010110 +
17
1,
1)
#276
0f
0`
0"/
b0000000000010111 %
b0000000000010111 w
0~
b0000000000010111 a
b0000000000010111 p
07
0,
0)
#281
1f
1`
1"/
1~
b0000000000010111 +
17
1,
1)
#286
0f
0`
0"/
b0000000000011000 %
b0000000000011000 w
0~
b0000000000011000 a
b0000000000011000 p
07
0,
0)
#291
1f
1`
1"/
1~
b0000000000011000 +
17
1,
1)
#296
0f
0`
0"/
b0000000000011001 %
b0000000000011001 w
0~
b0000000000011001 a
b0000000000011001 p
07
0,
0)
#301
1f
1`
1"/
1~
b0000000000011001 +
17
1,
1)
#306
0f
0`
0"/
b0000000000011010 %
b0000000000011010 w
0~
b0000000000011010 a
b0000000000011010 p
07
0,
0)
#311
1f
1`
1"/
1~
b0000000000011010 +
17
1,
1)
#316
0f
0`
0"/
b0000000000011011 %
b0000000000011011 w
0~
b0000000000011011 a
b0000000000011011 p
07
0,
0)
#321
1f
1`
1"/
1~
b0000000000011011 +
17
1,
1)
#326
0f
0`
0"/
b0000000000011100 %
b0000000000011100 w
0~
b0000000000011100 a
b0000000000011100 p
07
0,
0)
#331
1f
1`
1"/
1~
b0000000000011100 +
17
1,
1)
#336
0f
0`
0"/
b0000000000011101 %
b0000000000011101 w
0~
b0000000000011101 a
b0000000000011101 p
07
0,
0)
#341
1f
1`
1"/
1~
b0000000000011101 +
17
1,
1)
#346
0f
0`
0"/
b0000000000011110 %
b0000000000011110 w
0~
b0000000000011110 a
b0000000000011110 p
07
0,
0)
#351
1f
1`
1"/
1~
b0000000000011110 +
17
1,
1)
#356
0f
0`
0"/
b0000000000011111 %
b0000000000011111 w
0~
b0000000000011111 a
b0000000000011111 p
07
0,
0)
#361
1f
1`
1"/
1~
b0000000000011111 +
17
1,
1)
#366
0f
0`
0"/
b0000000000100000 %
b0000000000100000 w
0~
b0000000000100000 a
b0000000000100000 p
07
0,
0)
#371
1f
1`
1"/
1~
b0000000000100000 +
17
1,
1)
#376
0f
0`
0"/
b0000000000100001 %
b0000000000100001 w
0~
b0000000000100001 a
b0000000000100001 p
07
0,
0)
#381
1f
1`
1"/
1~
b0000000000100001 +
17
1,
1)
#386
0f
0`
0"/
b0000000000100010 %
b0000000000100010 w
0~
b0000000000100010 a
b0000000000100010 p
07
0,
0)
#391
1f
1`
1"/
1~
b0000000000100010 +
17
1,
1)
#396
0f
0`
0"/
b0000000000100011 %
b0000000000100011 w
0~
b0000000000100011 a
b0000000000100011 p
07
0,
0)
#401
1f
1`
1"/
1~
b0000000000100011 +
17
1,
1)
#406
0f
0`
0"/
b0000000000100100 %
b0000000000100100 w
0~
b0000000000100100 a
b0000000000100100 p
07
0,
0)
#411
1f
1`
1"/
1~
b0000000000100100 +
17
1,
1)
#416
0f
0`
0"/
b0000000000100101 %
b0000000000100101 w
0~
b0000000000100101 a
b0000000000100101 p
07
0,
0)
#421
1f
1`
1"/
1~
b0000000000100101 +
17
1,
1)
#426
0f
0`
0"/
b0000000000100110 %
b0000000000100110 w
0~
b0000000000100110 a
b0000000000100110 p
07
0,
0)
#431
1f
1`
1"/
1~
b0000000000100110 +
17
1,
1)
#436
0f
0`
0"/
b0000000000100111 %
b0000000000100111 w
0~
b0000000000100111 a
b0000000000100111 p
07
0,
0)
#441
1f
1`
1"/
1~
b0000000000100111 +
17
1,
1)
#446
0f
0`
0"/
b0000000000101000 %
b0000000000101000 w
0~
b0000000000101000 a
b0000000000101000 p
07
0,
0)
#451
1f
1`
1"/
1~
b0000000000101000 +
17
1,
1)
#456
0f
0`
0"/
b0000000000101001 %
b0000000000101001 w
0~
b0000000000101001 a
b0000000000101001 p
07
0,
0)
#461
1f
1`
1"/
1~
b0000000000101001 +
17
1,
1)
#466
0f
0`
0"/
b0000000000101010 %
b0000000000101010 w
0~
b0000000000101010 a
b0000000000101010 p
07
0,
0)
#471
1f
1`
1"/
1~
b0000000000101010 +
17
1,
1)
#476
0f
0`
0"/
b0000000000101011 %
b0000000000101011 w
0~
b0000000000101011 a
b0000000000101011 p
07
0,
0)
#481
1f
1`
1"/
1~
b0000000000101011 +
17
1,
1)
#486
0f
0`
0"/
b0000000000101100 %
b0000000000101100 w
0~
b0000000000101100 a
b0000000000101100 p
07
0,
0)
#491
1f
1`
1"/
1~
b0000000000101100 +
17
1,
1)
#496
0f
0`
0"/
b0000000000101101 %
b0000000000101101 w
0~
b0000000000101101 a
b0000000000101101 p
07
0,
0)
#501
1f
1`
1"/
1~
b0000000000101101 +
17
1,
1)
#506
0f
0`
0"/
b0000000000101110 %
b0000000000101110 w
0~
b0000000000101110 a
b0000000000101110 p
07
0,
0)
#511
1f
1`
1"/
1~
b0000000000101110 +
17
1,
1)
#516
0f
0`
0"/
b0000000000101111 %
b0000000000101111 w
0~
b0000000000101111 a
b0000000000101111 p
07
0,
0)
#521
1f
1`
1"/
1~
b0000000000101111 +
17
1,
1)
#526
0f
0`
0"/
b0000000000110000 %
b0000000000110000 w
0~
b0000000000110000 a
b0000000000110000 p
07
0,
0)
#531
1f
1`
1"/
1~
b0000000000110000 +
17
1,
1)
#536
0f
0`
0"/
b0000000000110001 %
b0000000000110001 w
0~
b0000000000110001 a
b0000000000110001 p
07
0,
0)
#541
1f
1`
1"/
1~
b0000000000110001 +
17
1,
1)
#546
0f
0`
0"/
b0000000000110010 %
b0000000000110010 w
0~
b0000000000110010 a
b0000000000110010 p
07
0,
0)
#551
1f
1`
1"/
1~
b0000000000110010 +
17
1,
1)
#556
0f
0`
0"/
b0000000000110011 %
b0000000000110011 w
0~
b0000000000110011 a
b0000000000110011 p
07
0,
0)
#561
1f
1`
1"/
1~
b0000000000110011 +
17
1,
1)
#566
0f
0`
0"/
b0000000000110100 %
b0000000000110100 w
0~
b0000000000110100 a
b0000000000110100 p
07
0,
0)
#571
1f
1`
1"/
1~
b0000000000110100 +
17
1,
1)
#576
0f
0`
0"/
b0000000000110101 %
b0000000000110101 w
0~
b0000000000110101 a
b0000000000110101 p
07
0,
0)
#581
1f
1`
1"/
1~
b0000000000110101 +
17
1,
1)
#586
0f
0`
0"/
b0000000000110110 %
b0000000000110110 w
0~
b0000000000110110 a
b0000000000110110 p
07
0,
0)
#591
1f
1`
1"/
1~
b0000000000110110 +
17
1,
1)
#596
0f
0`
0"/
b0000000000110111 %
b0000000000110111 w
0~
b0000000000110111 a
b0000000000110111 p
07
0,
0)
#601
1f
1`
1"/
1~
b0000000000110111 +
17
1,
1)
#606
0f
0`
0"/
b0000000000111000 %
b0000000000111000 w
0~
b0000000000111000 a
b0000000000111000 p
07
0,
0)
#611
1f
1`
1"/
1~
b0000000000111000 +
17
1,
1)
#616
0f
0`
0"/
b0000000000111001 %
b0000000000111001 w
0~
b0000000000111001 a
b0000000000111001 p
07
0,
0)
#621
1f
1`
1"/
1~
b0000000000111001 +
17
1,
1)
#626
0f
0`
0"/
b0000000000111010 %
b0000000000111010 w
0~
b0000000000111010 a
b0000000000111010 p
07
0,
0)
#631
1f
1`
1"/
1~
b0000000000111010 +
17
1,
1)
#636
0f
0`
0"/
b0000000000111011 %
b0000000000111011 w
0~
b0000000000111011 a
b0000000000111011 p
07
0,
0)
#641
1f
1`
1"/
1~
b0000000000111011 +
17
1,
1)
#646
0f
0`
0"/
b0000000000111100 %
b0000000000111100 w
0~
b0000000000111100 a
b0000000000111100 p
07
0,
0)
#651
1f
1`
1"/
1~
b0000000000111100 +
17
1,
1)
#656
0f
0`
0"/
b0000000000111101 %
b0000000000111101 w
0~
b0000000000111101 a
b0000000000111101 p
07
0,
0)
#661
1f
1`
1"/
1~
b0000000000111101 +
17
1,
1)
#666
0f
0`
0"/
b0000000000111110 %
b0000000000111110 w
0~
b0000000000111110 a
b0000000000111110 p
07
0,
0)
#671
1f
1`
1"/
1~
b0000000000111110 +
17
1,
1)
#676
0f
0`
0"/
b0000000000111111 %
b0000000000111111 w
0~
b0000000000111111 a
b0000000000111111 p
07
0,
0)
#681
1f
1`
1"/
1~
b0000000000111111 +
17
1,
1)
#686
0f
0`
0"/
b0000000001000000 %
b0000000001000000 w
0~
b0000000001000000 a
b0000000001000000 p
07
0,
0)
#691
1f
1`
1"/
1~
b0000000001000000 +
17
1,
1)
#696
0f
0`
0"/
b0000000001000001 %
b0000000001000001 w
0~
b0000000001000001 a
b0000000001000001 p
07
0,
0)
#701
1f
1`
1"/
1~
b0000000001000001 +
17
1,
1)
#706
0f
0`
0"/
b0000000001000010 %
b0000000001000010 w
0~
b0000000001000010 a
b0000000001000010 p
07
0,
0)
#711
1f
1`
1"/
1~
b0000000001000010 +
17
1,
1)
#716
0f
0`
0"/
b0000000001000011 %
b0000000001000011 w
0~
b0000000001000011 a
b0000000001000011 p
07
0,
0)
#721
1f
1`
1"/
1~
b0000000001000011 +
17
1,
1)
#726
0f
0`
0"/
b0000000001000100 %
b0000000001000100 w
0~
b0000000001000100 a
b0000000001000100 p
07
0,
0)
#731
1f
1`
1"/
1~
b0000000001000100 +
17
1,
1)
#736
0f
0`
0"/
b0000000001000101 %
b0000000001000101 w
0~
b0000000001000101 a
b0000000001000101 p
07
0,
0)
#741
1f
1`
1"/
1~
b0000000001000101 +
17
1,
1)
#746
0f
0`
0"/
b0000000001000110 %
b0000000001000110 w
0~
b0000000001000110 a
b0000000001000110 p
07
0,
0)
#751
1f
1`
1"/
1~
b0000000001000110 +
17
1,
1)
#756
0f
0`
0"/
b0000000001000111 %
b0000000001000111 w
0~
b0000000001000111 a
b0000000001000111 p
07
0,
0)
#761
1f
1`
1"/
1~
b0000000001000111 +
17
1,
1)
#766
0f
0`
0"/
b0000000001001000 %
b0000000001001000 w
0~
b0000000001001000 a
b0000000001001000 p
07
0,
0)
#771
1f
1`
1"/
1~
b0000000001001000 +
17
1,
1)
#776
0f
0`
0"/
b0000000001001001 %
b0000000001001001 w
0~
b0000000001001001 a
b0000000001001001 p
07
0,
0)
#781
1f
1`
1"/
1~
b0000000001001001 +
17
1,
1)
#786
0f
0`
0"/
b0000000001001010 %
b0000000001001010 w
0~
b0000000001001010 a
b0000000001001010 p
07
0,
0)
#791
1f
1`
1"/
1~
b0000000001001010 +
17
1,
1)
#796
0f
0`
0"/
b0000000001001011 %
b0000000001001011 w
0~
b0000000001001011 a
b0000000001001011 p
07
0,
0)
#801
1f
1`
1"/
1~
b0000000001001011 +
17
1,
1)
#806
0f
0`
0"/
b0000000001001100 %
b0000000001001100 w
0~
b0000000001001100 a
b0000000001001100 p
07
0,
0)
#811
1f
1`
1"/
1~
b0000000001001100 +
17
1,
1)
#816
0f
0`
0"/
b0000000001001101 %
b0000000001001101 w
0~
b0000000001001101 a
b0000000001001101 p
07
0,
0)
#821
1f
1`
1"/
1~
b0000000001001101 +
17
1,
1)
#826
0f
0`
0"/
b0000000001001110 %
b0000000001001110 w
0~
b0000000001001110 a
b0000000001001110 p
07
0,
0)
#831
1f
1`
1"/
1~
b0000000001001110 +
17
1,
1)
#836
0f
0`
0"/
b0000000001001111 %
b0000000001001111 w
0~
b0000000001001111 a
b0000000001001111 p
07
0,
0)
#841
1f
1`
1"/
1~
b0000000001001111 +
17
1,
1)
#846
0f
0`
0"/
b0000000001010000 %
b0000000001010000 w
0~
b0000000001010000 a
b0000000001010000 p
07
0,
0)
#851
1f
1`
1"/
1~
b0000000001010000 +
17
1,
1)
#856
0f
0`
0"/
b0000000001010001 %
b0000000001010001 w
0~
b0000000001010001 a
b0000000001010001 p
07
0,
0)
#861
1f
1`
1"/
1~
b0000000001010001 +
17
1,
1)
#866
0f
0`
0"/
b0000000001010010 %
b0000000001010010 w
0~
b0000000001010010 a
b0000000001010010 p
07
0,
0)
#871
1f
1`
1"/
1~
b0000000001010010 +
17
1,
1)
#876
0f
0`
0"/
b0000000001010011 %
b0000000001010011 w
0~
b0000000001010011 a
b0000000001010011 p
07
0,
0)
#881
1f
1`
1"/
1~
b0000000001010011 +
17
1,
1)
#886
0f
0`
0"/
b0000000001010100 %
b0000000001010100 w
0~
b0000000001010100 a
b0000000001010100 p
07
0,
0)
#891
1f
1`
1"/
1~
b0000000001010100 +
17
1,
1)
#896
0f
0`
0"/
b0000000001010101 %
b0000000001010101 w
0~
b0000000001010101 a
b0000000001010101 p
07
0,
0)
#901
1f
1`
1"/
1~
b0000000001010101 +
17
1,
1)
#906
0f
0`
0"/
b0000000001010110 %
b0000000001010110 w
0~
b0000000001010110 a
b0000000001010110 p
07
0,
0)
#911
1f
1`
1"/
1~
b0000000001010110 +
17
1,
1)
#916
0f
0`
0"/
b0000000001010111 %
b0000000001010111 w
0~
b0000000001010111 a
b0000000001010111 p
07
0,
0)
#921
1f
1`
1"/
1~
b0000000001010111 +
17
1,
1)
#926
0f
0`
0"/
b0000000001011000 %
b0000000001011000 w
0~
b0000000001011000 a
b0000000001011000 p
07
0,
0)
#931
1f
1`
1"/
1~
b0000000001011000 +
17
1,
1)
#936
0f
0`
0"/
b0000000001011001 %
b0000000001011001 w
0~
b0000000001011001 a
b0000000001011001 p
07
0,
0)
#941
1f
1`
1"/
1~
b0000000001011001 +
17
1,
1)
#946
0f
0`
0"/
b0000000001011010 %
b0000000001011010 w
0~
b0000000001011010 a
b0000000001011010 p
07
0,
0)
#951
1f
1`
1"/
1~
b0000000001011010 +
17
1,
1)
#956
0f
0`
0"/
b0000000001011011 %
b0000000001011011 w
0~
b0000000001011011 a
b0000000001011011 p
07
0,
0)
#961
1f
1`
1"/
1~
b0000000001011011 +
17
1,
1)
#966
0f
0`
0"/
b0000000001011100 %
b0000000001011100 w
0~
b0000000001011100 a
b0000000001011100 p
07
0,
0)
#971
1f
1`
1"/
1~
b0000000001011100 +
17
1,
1)
#976
0f
0`
0"/
b0000000001011101 %
b0000000001011101 w
0~
b0000000001011101 a
b0000000001011101 p
07
0,
0)
#981
1f
1`
1"/
1~
b0000000001011101 +
17
1,
1)
#986
0f
0`
0"/
b0000000001011110 %
b0000000001011110 w
0~
b0000000001011110 a
b0000000001011110 p
07
0,
0)
#991
1f
1`
1"/
1~
b0000000001011110 +
17
1,
1)
#996
0f
0`
0"/
b0000000001011111 %
b0000000001011111 w
0~
b0000000001011111 a
b0000000001011111 p
07
0,
0)
#1001
1f
1`
1"/
1~
b0000000001011111 +
17
1,
1)
#1006
0f
0`
0"/
b0000000001100000 %
b0000000001100000 w
0~
b0000000001100000 a
b0000000001100000 p
07
0,
0)
#1011
1f
1`
1"/
1~
b0000000001100000 +
17
1,
1)
#1016
0f
0`
b0000000001100001 %
b00000000000000000000000011111111 &
b00000000000000000000000011111111 "%
b0000000001100001 w
b00000000000000000000000011111111 S
0~
b0000000001100001 a
b0000000001100001 p
b00000000000000000000000011111111 L
07
0)
0"/
b00000000000000000000000011111111 #
b00000000000000000000000011111111 I
0,
#1021
1f
1`
1"/
1~
b0000000001100001 +
b00000000000000000000000011111111 ^
17
b00000000000000000000000011111111 "*
1,
1)
#1026
0f
0`
b0000000001100010 %
b00000000000000000000000000000000 &
b00000000000000000000000000000000 "%
b0000000001100010 w
b00000000000000000000000000000000 S
0~
b0000000001100010 a
b0000000001100010 p
b00000000000000000000000000000000 L
07
0)
0"/
b00000000000000000000000000000000 #
b00000000000000000000000000000000 I
b00000000000000000000000000000000 "*
0,
#1031
1f
1`
1"/
1~
b0000000001100010 +
b00000000000000000000000000000000 ^
17
1,
1)
#1036
0f
0`
0"/
b0000000001100011 %
b0000000001100011 w
0~
b0000000001100011 a
b0000000001100011 p
07
0,
0)
#1041
1f
1`
1"/
1~
b0000000001100011 +
17
1,
1)
#1046
0f
0`
0"/
b0000000001100100 %
b0000000001100100 w
0~
b0000000001100100 a
b0000000001100100 p
07
0,
0)
#1051
1f
1`
1"/
1~
b0000000001100100 +
17
1,
1)
#1056
0f
0`
0"/
b0000000001100101 %
b0000000001100101 w
0~
b0000000001100101 a
b0000000001100101 p
07
0,
0)
#1061
1f
1`
1"/
1~
b0000000001100101 +
17
1,
1)
#1066
0f
0`
b0000000001100110 %
b00000000000000000000000011111111 &
b00000000000000000000000011111111 "%
b0000000001100110 w
b00000000000000000000000011111111 S
0~
b0000000001100110 a
b0000000001100110 p
b00000000000000000000000011111111 L
07
0)
0"/
b00000000000000000000000011111111 #
b00000000000000000000000011111111 I
0,
#1071
1f
1`
1"/
1~
b0000000001100110 +
b00000000000000000000000011111111 ^
17
b00000000000000000000000011111111 "*
1,
1)
#1076
0f
0`
b0000000001100111 %
b00000000000000000000000000000000 &
b00000000000000000000000000000000 "%
b0000000001100111 w
b00000000000000000000000000000000 S
0~
b0000000001100111 a
b0000000001100111 p
b00000000000000000000000000000000 L
07
0)
0"/
b00000000000000000000000000000000 #
b00000000000000000000000000000000 I
b00000000000000000000000000000000 "*
0,
#1081
1f
1`
1"/
1~
b0000000001100111 +
b00000000000000000000000000000000 ^
17
1,
1)
#1086
0f
0`
0"/
b0000000001101000 %
b0000000001101000 w
0~
b0000000001101000 a
b0000000001101000 p
07
0,
0)
#1091
1f
1`
1"/
1~
b0000000001101000 +
17
1,
1)
#1096
0f
0`
0"/
b0000000001101001 %
b0000000001101001 w
0~
b0000000001101001 a
b0000000001101001 p
07
0,
0)
#1101
1f
1`
1"/
1~
b0000000001101001 +
17
1,
1)
#1106
0f
0`
0"/
b0000000001101010 %
b0000000001101010 w
0~
b0000000001101010 a
b0000000001101010 p
07
0,
0)
#1111
1f
1`
1"/
1~
b0000000001101010 +
17
1,
1)
#1116
0f
0`
0"/
b0000000001101011 %
b0000000001101011 w
0~
b0000000001101011 a
b0000000001101011 p
07
0,
0)
#1121
1f
1`
1"/
1~
b0000000001101011 +
17
1,
1)
#1126
0f
0`
0"/
b0000000001101100 %
b0000000001101100 w
0~
b0000000001101100 a
b0000000001101100 p
07
0,
0)
#1131
1f
1`
1"/
1~
b0000000001101100 +
17
1,
1)
#1136
0f
0`
0"/
b0000000001101101 %
b0000000001101101 w
0~
b0000000001101101 a
b0000000001101101 p
07
0,
0)
#1141
1f
1`
1"/
1~
b0000000001101101 +
17
1,
1)
