generated/SystemTop.vcd
$date
2021-11-24T19:15+0000
$end
$version
0.2
$end
$comment

$end
$timescale 1ns  $end
$scope module SystemTop $end
 $var wire 32 # io_testerDataMemDataRead $end
 $var wire 1 . io_testerDataMemWriteEnable $end
 $var wire 32 Q io_testerDataMemDataWrite $end
 $var wire 1 R io_start $end
 $var wire 1 ] io_testerDataMemEnable $end
 $var wire 1 p clock $end
 $var wire 1 z dataMemory $end
 $var wire 16 { io_testerDataMemAddress $end
 $var wire 1 ~ accelerator $end
 $var wire 1 "# io_done $end
 $var wire 1 "< reset $end
  $scope module dataMemory $end
   $var wire 32 ! _GEN_11 $end
   $var wire 32 & io_testerDataWrite $end
   $var wire 1 - clock $end
   $var wire 1 / io_testerEnable $end
   $var wire 32 A io_dataRead $end
   $var wire 32 B io_dataWrite $end
   $var wire 1 X io_testerWriteEnable $end
   $var wire 32 Z _GEN_5 $end
   $var wire 16 k io_address $end
   $var wire 1 m io_writeEnable $end
   $var wire 16 "$ io_testerAddress $end
   $var wire 32 "& memory $end
   $var wire 32 "1 io_testerDataRead $end
    $scope module memory $end
      $scope module _T_1 $end
       $var wire 16 % addr $end
       $var wire 16 , pipeline_addr_0 $end
       $var wire 1 0 en $end
       $var wire 32 N data $end
       $var wire 32 e pipeline_data_0 $end
       $var wire 1 "! pipeline_valid_0 $end
       $var wire 1 "* valid $end
       $var wire 1 "3 mask $end
       $var wire 1 "? clk $end
      $upscope $end
      $scope module _T $end
       $var wire 1 ) clk $end
       $var wire 16 j addr $end
       $var wire 1 n en $end
       $var wire 32 "9 data $end
      $upscope $end
      $scope module _T_3 $end
       $var wire 1 1 pipeline_valid_0 $end
       $var wire 1 4 en $end
       $var wire 1 5 mask $end
       $var wire 16 9 pipeline_addr_0 $end
       $var wire 16 U addr $end
       $var wire 1 h clk $end
       $var wire 32 | pipeline_data_0 $end
       $var wire 32 "( data $end
       $var wire 1 "I valid $end
      $upscope $end
      $scope module _T_2 $end
       $var wire 1 ; clk $end
       $var wire 16 C addr $end
       $var wire 32 b data $end
       $var wire 1 v en $end
      $upscope $end
    $upscope $end
  $upscope $end
  $scope module accelerator $end
   $var wire 32 " _GEN_2 $end
   $var wire 4 $ _GEN_13 $end
   $var wire 16 ' _GEN_34 $end
   $var wire 1 ( _GEN_28 $end
   $var wire 16 * _GEN_78 $end
   $var wire 32 + _GEN_5 $end
   $var wire 4 2 _GEN_72 $end
   $var wire 16 3 _GEN_66 $end
   $var wire 32 6 dataReg $end
   $var wire 32 7 _GEN_8 $end
   $var wire 32 8 _GEN_51 $end
   $var wire 32 : _GEN_81 $end
   $var wire 16 < _GEN_75 $end
   $var wire 4 = _GEN_48 $end
   $var wire 32 > neighbour $end
   $var wire 32 ? _GEN_54 $end
   $var wire 1 @ _GEN_33 $end
   $var wire 16 D _GEN_69 $end
   $var wire 1 E _GEN_60 $end
   $var wire 1 F _GEN_57 $end
   $var wire 4 G _GEN_15 $end
   $var wire 16 H _GEN_42 $end
   $var wire 1 I _GEN_36 $end
   $var wire 16 J _GEN_63 $end
   $var wire 1 K reset $end
   $var wire 32 L _GEN_30 $end
   $var wire 8 M _GEN_18 $end
   $var wire 16 O _GEN_45 $end
   $var wire 32 P _GEN_39 $end
   $var wire 1 S _GEN_74 $end
   $var wire 4 T _GEN_27 $end
   $var wire 32 V _GEN_80 $end
   $var wire 32 W _GEN_12 $end
   $var wire 32 Y counter $end
   $var wire 4 [ stateReg $end
   $var wire 16 \ _GEN_1 $end
   $var wire 4 ^ _GEN_77 $end
   $var wire 1 _ _T $end
   $var wire 4 ` _GEN_62 $end
   $var wire 4 a _GEN_56 $end
   $var wire 32 c _GEN_38 $end
   $var wire 16 d _GEN_50 $end
   $var wire 1 f _GEN_44 $end
   $var wire 32 g _GEN_59 $end
   $var wire 32 i _GEN_71 $end
   $var wire 1 l _GEN_65 $end
   $var wire 4 o _GEN_32 $end
   $var wire 16 q _GEN_53 $end
   $var wire 32 r _GEN_47 $end
   $var wire 1 s io_done $end
   $var wire 1 t _GEN_68 $end
   $var wire 32 u _GEN_26 $end
   $var wire 32 w _GEN_35 $end
   $var wire 1 x io_writeEnable $end
   $var wire 1 y _GEN_41 $end
   $var wire 16 } _GEN_29 $end
   $var wire 4 "" _GEN_20 $end
   $var wire 4 "% _GEN_17 $end
   $var wire 32 "' io_dataWrite $end
   $var wire 16 ") _GEN_23 $end
   $var wire 1 "+ clock $end
   $var wire 16 ", io_address $end
   $var wire 4 "- _GEN_0 $end
   $var wire 1 ". io_start $end
   $var wire 32 "/ io_dataRead $end
   $var wire 32 "0 _GEN_73 $end
   $var wire 32 "2 _GEN_67 $end
   $var wire 32 "4 _GEN_61 $end
   $var wire 1 "5 _GEN_49 $end
   $var wire 32 "6 _GEN_82 $end
   $var wire 4 "7 _GEN_40 $end
   $var wire 32 "8 _GEN_55 $end
   $var wire 1 ": _GEN_76 $end
   $var wire 32 "; _GEN_70 $end
   $var wire 32 "= _GEN_43 $end
   $var wire 16 "> _GEN_37 $end
   $var wire 16 "@ _GEN_58 $end
   $var wire 4 "A _GEN_22 $end
   $var wire 32 "B _GEN_64 $end
   $var wire 32 "C _GEN_31 $end
   $var wire 16 "D addressReg $end
   $var wire 32 "E _GEN_46 $end
   $var wire 1 "F _GEN_52 $end
   $var wire 32 "G _GEN_10 $end
   $var wire 16 "H _GEN_25 $end
  $upscope $end
$upscope $end
$enddefinitions $end
$dumpvars
0X
b00000000000000000000000000000000 Y
b0000000000000000 H
b00000000 M
0R
b00000000000000000000000000000000 r
b00000000000000000000000000000000 "8
b00000000000000000000000000000000 "2
b00000000000000000000000000000000 :
0m
b00000000000000000000000000000000 "4
b00000000000000000000000000000000 Q
0"F
b00000000000000000000000000000000 6
b0000000000000000 %
0~
b00000000000000000000000000000000 w
b00000000000000000000000000000000 b
0/
0"#
0x
b00000000000000000000000000000000 "G
0F
0":
b0000 "%
0)
0z
0]
0"<
0@
b00000000000000000000000000000000 A
b0000 `
b00000000000000000000000000000000 "C
b00000000000000000000000000000000 "&
b0000000000000000 *
b0000000000000000 {
0v
b00000000000000000000000000000000 "=
b00000000000000000000000000000000 Z
b0000000000000000 "D
0p
b0000 T
b0000000000000000 C
b00000000000000000000000000000000 ?
b00000000000000000000000000000000 "9
b00000000000000000000000000000000 V
b0000000000000000 "@
b0000 $
b0000000000000000 q
b0000000000000000 \
0l
b00000000000000000000000000000000 e
b00000000000000000000000000000000 P
0".
b00000000000000000000000000000000 |
0f
b0000000000000000 k
0I
04
b0000000000000000 9
b00000000000000000000000000000000 i
b0000000000000000 ">
b00000000000000000000000000000000 "/
0"?
0"*
b0000000000000000 3
b00000000000000000000000000000000 "1
b0000000000000000 J
0E
00
b0000 "A
0(
b00000000000000000000000000000000 B
b00000000000000000000000000000000 "'
b0000 "7
0;
b0000 [
b00000000000000000000000000000000 "6
b00000000000000000000000000000000 >
b00000000000000000000000000000000 !
15
b0000000000000000 D
b0000000000000000 '
b00000000000000000000000000000000 #
b00000000000000000000000000000000 8
b0000000000000000 ",
b0000000000000000 "$
b0000 "-
b0000000000000000 U
b0000000000000000 O
0-
b00000000000000000000000000000000 "E
b00000000000000000000000000000000 "0
b0000000000000000 <
b00000000000000000000000000000000 "(
0"+
b0000000000000000 }
b0000 G
b0000 2
01
b0000000000000000 j
b0000 ^
b0000000000000000 "H
b00000000000000000000000000000000 u
b0000000000000000 d
0t
b00000000000000000000000000000000 ";
0_
0"!
b00000000000000000000000000000000 &
b0000 o
0n
b0000 =
b0000000000000000 ,
0S
b0000000000000000 ")
b00000000000000000000000000000000 7
b00000000000000000000000000000000 "
0"I
b00000000000000000000000000000000 N
1"3
b00000000000000000000000000000000 g
b0000 a
0h
b00000000000000000000000000000000 L
0K
0.
b0000 ""
b00000000000000000000000000000000 c
0y
b00000000000000000000000000000000 +
b00000000000000000000000000000000 "B
0s
b00000000000000000000000000000000 W
0"5
$end
#0
1v
b0111 G
b0111 "%
b0001 ""
1K
b0111 $
1"<
1_
#1
1)
1-
1"?
1h
1p
1;
1"+
#6
0)
0-
0"?
0h
0p
0;
0"+
#11
1)
1-
1"?
1h
1p
1;
1"+
#16
0)
0-
0"?
0h
0p
0;
0"+
#21
1)
1-
1"?
1h
1p
1;
1"+
#26
0)
0-
0"?
0h
0p
0;
0"+
#31
1)
1-
1"?
1h
1p
1;
1"+
#36
0)
0-
0"?
0h
0p
0;
0"+
#41
1)
1-
1"?
1h
1p
1;
1"+
#46
1n
0-
1X
1.
0v
0h
0K
0p
0"<
1/
0)
10
0"?
1]
1"*
0;
0"+
#51
1)
1-
1"!
1"?
1h
1p
1;
1"+
#56
0)
0-
b0000000000000001 %
b0000000000000001 "$
0"?
0h
b0000000000000001 {
0p
b0000000000000001 j
0;
0"+
#61
1)
1-
1"?
1h
1p
b0000000000000001 ,
1;
1"+
#66
0)
0-
b0000000000000010 %
b0000000000000010 "$
0"?
0h
b0000000000000010 {
0p
b0000000000000010 j
0;
0"+
#71
1)
1-
1"?
1h
1p
b0000000000000010 ,
1;
1"+
#76
0)
0-
b0000000000000011 %
b0000000000000011 "$
0"?
0h
b0000000000000011 {
0p
b0000000000000011 j
0;
0"+
#81
1)
1-
1"?
1h
1p
b0000000000000011 ,
1;
1"+
#86
0)
0-
b0000000000000100 %
b0000000000000100 "$
0"?
0h
b0000000000000100 {
0p
b0000000000000100 j
0;
0"+
#91
1)
1-
1"?
1h
1p
b0000000000000100 ,
1;
1"+
#96
0)
0-
b0000000000000101 %
b0000000000000101 "$
0"?
0h
b0000000000000101 {
0p
b0000000000000101 j
0;
0"+
#101
1)
1-
1"?
1h
1p
b0000000000000101 ,
1;
1"+
#106
0)
0-
b0000000000000110 %
b0000000000000110 "$
0"?
0h
b0000000000000110 {
0p
b0000000000000110 j
0;
0"+
#111
1)
1-
1"?
1h
1p
b0000000000000110 ,
1;
1"+
#116
0)
0-
b0000000000000111 %
b0000000000000111 "$
0"?
0h
b0000000000000111 {
0p
b0000000000000111 j
0;
0"+
#121
1)
1-
1"?
1h
1p
b0000000000000111 ,
1;
1"+
#126
0)
0-
b0000000000001000 %
b0000000000001000 "$
0"?
0h
b0000000000001000 {
0p
b0000000000001000 j
0;
0"+
#131
1)
1-
1"?
1h
1p
b0000000000001000 ,
1;
1"+
#136
0)
0-
b0000000000001001 %
b0000000000001001 "$
0"?
0h
b0000000000001001 {
0p
b0000000000001001 j
0;
0"+
#141
1)
1-
1"?
1h
1p
b0000000000001001 ,
1;
1"+
#146
0)
0-
b0000000000001010 %
b0000000000001010 "$
0"?
0h
b0000000000001010 {
0p
b0000000000001010 j
0;
0"+
#151
1)
1-
1"?
1h
1p
b0000000000001010 ,
1;
1"+
#156
0)
0-
b0000000000001011 %
b0000000000001011 "$
0"?
0h
b0000000000001011 {
0p
b0000000000001011 j
0;
0"+
#161
1)
1-
1"?
1h
1p
b0000000000001011 ,
1;
1"+
#166
0)
0-
b0000000000001100 %
b0000000000001100 "$
0"?
0h
b0000000000001100 {
0p
b0000000000001100 j
0;
0"+
#171
1)
1-
1"?
1h
1p
b0000000000001100 ,
1;
1"+
#176
0)
0-
b0000000000001101 %
b0000000000001101 "$
0"?
0h
b0000000000001101 {
0p
b0000000000001101 j
0;
0"+
#181
1)
1-
1"?
1h
1p
b0000000000001101 ,
1;
1"+
#186
0)
0-
b0000000000001110 %
b0000000000001110 "$
0"?
0h
b0000000000001110 {
0p
b0000000000001110 j
0;
0"+
#191
1)
1-
1"?
1h
1p
b0000000000001110 ,
1;
1"+
#196
0)
0-
b0000000000001111 %
b0000000000001111 "$
0"?
0h
b0000000000001111 {
0p
b0000000000001111 j
0;
0"+
#201
1)
1-
1"?
1h
1p
b0000000000001111 ,
1;
1"+
#206
0)
0-
b0000000000010000 %
b0000000000010000 "$
0"?
0h
b0000000000010000 {
0p
b0000000000010000 j
0;
0"+
#211
1)
1-
1"?
1h
1p
b0000000000010000 ,
1;
1"+
#216
0)
0-
b0000000000010001 %
b0000000000010001 "$
0"?
0h
b0000000000010001 {
0p
b0000000000010001 j
0;
0"+
#221
1)
1-
1"?
1h
1p
b0000000000010001 ,
1;
1"+
#226
0)
0-
b0000000000010010 %
b0000000000010010 "$
0"?
0h
b0000000000010010 {
0p
b0000000000010010 j
0;
0"+
#231
1)
1-
1"?
1h
1p
b0000000000010010 ,
1;
1"+
#236
0)
0-
b0000000000010011 %
b0000000000010011 "$
0"?
0h
b0000000000010011 {
0p
b0000000000010011 j
0;
0"+
#241
1)
1-
1"?
1h
1p
b0000000000010011 ,
1;
1"+
#246
0)
0-
b0000000000010100 %
b0000000000010100 "$
0"?
0h
b0000000000010100 {
0p
b0000000000010100 j
0;
0"+
#251
1)
1-
1"?
1h
1p
b0000000000010100 ,
1;
1"+
#256
0)
0-
b0000000000010101 %
b0000000000010101 "$
0"?
0h
b0000000000010101 {
0p
b0000000000010101 j
0;
0"+
#261
1)
1-
1"?
1h
1p
b0000000000010101 ,
1;
1"+
#266
0)
0-
b0000000000010110 %
b0000000000010110 "$
0"?
0h
b0000000000010110 {
0p
b0000000000010110 j
0;
0"+
#271
1)
1-
1"?
1h
1p
b0000000000010110 ,
1;
1"+
#276
0)
0-
b0000000000010111 %
b0000000000010111 "$
0"?
0h
b0000000000010111 {
0p
b0000000000010111 j
0;
0"+
#281
1)
1-
1"?
1h
1p
b0000000000010111 ,
1;
1"+
#286
0)
0-
b0000000000011000 %
b0000000000011000 "$
0"?
0h
b0000000000011000 {
0p
b0000000000011000 j
0;
0"+
#291
1)
1-
1"?
1h
1p
b0000000000011000 ,
1;
1"+
#296
0)
0-
b0000000000011001 %
b0000000000011001 "$
0"?
0h
b0000000000011001 {
0p
b0000000000011001 j
0;
0"+
#301
1)
1-
1"?
1h
1p
b0000000000011001 ,
1;
1"+
#306
0)
0-
b0000000000011010 %
b0000000000011010 "$
0"?
0h
b0000000000011010 {
0p
b0000000000011010 j
0;
0"+
#311
1)
1-
1"?
1h
1p
b0000000000011010 ,
1;
1"+
#316
0)
0-
b0000000000011011 %
b0000000000011011 "$
0"?
0h
b0000000000011011 {
0p
b0000000000011011 j
0;
0"+
#321
1)
1-
1"?
1h
1p
b0000000000011011 ,
1;
1"+
#326
0)
0-
b0000000000011100 %
b0000000000011100 "$
0"?
0h
b0000000000011100 {
0p
b0000000000011100 j
0;
0"+
#331
1)
1-
1"?
1h
1p
b0000000000011100 ,
1;
1"+
#336
0)
0-
b0000000000011101 %
b0000000000011101 "$
0"?
0h
b0000000000011101 {
0p
b0000000000011101 j
0;
0"+
#341
1)
1-
1"?
1h
1p
b0000000000011101 ,
1;
1"+
#346
0)
0-
b0000000000011110 %
b0000000000011110 "$
0"?
0h
b0000000000011110 {
0p
b0000000000011110 j
0;
0"+
#351
1)
1-
1"?
1h
1p
b0000000000011110 ,
1;
1"+
#356
0)
0-
b0000000000011111 %
b0000000000011111 "$
0"?
0h
b0000000000011111 {
0p
b0000000000011111 j
0;
0"+
#361
1)
1-
1"?
1h
1p
b0000000000011111 ,
1;
1"+
#366
0)
0-
b0000000000100000 %
b0000000000100000 "$
0"?
0h
b0000000000100000 {
0p
b0000000000100000 j
0;
0"+
#371
1)
1-
1"?
1h
1p
b0000000000100000 ,
1;
1"+
#376
0)
0-
b0000000000100001 %
b0000000000100001 "$
0"?
0h
b0000000000100001 {
0p
b0000000000100001 j
0;
0"+
#381
1)
1-
1"?
1h
1p
b0000000000100001 ,
1;
1"+
#386
0)
0-
b0000000000100010 %
b0000000000100010 "$
0"?
0h
b0000000000100010 {
0p
b0000000000100010 j
0;
0"+
#391
1)
1-
1"?
1h
1p
b0000000000100010 ,
1;
1"+
#396
0)
0-
b0000000000100011 %
b0000000000100011 "$
0"?
0h
b0000000000100011 {
0p
b0000000000100011 j
0;
0"+
#401
1)
1-
1"?
1h
1p
b0000000000100011 ,
1;
1"+
#406
0)
0-
b0000000000100100 %
b0000000000100100 "$
0"?
0h
b0000000000100100 {
0p
b0000000000100100 j
0;
0"+
#411
1)
1-
1"?
1h
1p
b0000000000100100 ,
1;
1"+
#416
0)
0-
b0000000000100101 %
b0000000000100101 "$
0"?
0h
b0000000000100101 {
0p
b0000000000100101 j
0;
0"+
#421
1)
1-
1"?
1h
1p
b0000000000100101 ,
1;
1"+
#426
0)
0-
b0000000000100110 %
b0000000000100110 "$
0"?
0h
b0000000000100110 {
0p
b0000000000100110 j
0;
0"+
#431
1)
1-
1"?
1h
1p
b0000000000100110 ,
1;
1"+
#436
0)
0-
b0000000000100111 %
b0000000000100111 "$
0"?
0h
b0000000000100111 {
0p
b0000000000100111 j
0;
0"+
#441
1)
1-
1"?
1h
1p
b0000000000100111 ,
1;
1"+
#446
0)
0-
b0000000000101000 %
b0000000000101000 "$
0"?
0h
b0000000000101000 {
0p
b0000000000101000 j
0;
0"+
#451
1)
1-
1"?
1h
1p
b0000000000101000 ,
1;
1"+
#456
0)
0-
b0000000000101001 %
b0000000000101001 "$
0"?
0h
b0000000000101001 {
0p
b0000000000101001 j
0;
0"+
#461
1)
1-
1"?
1h
1p
b0000000000101001 ,
1;
1"+
#466
0)
0-
b0000000000101010 %
b0000000000101010 "$
0"?
0h
b0000000000101010 {
0p
b0000000000101010 j
0;
0"+
#471
1)
1-
1"?
1h
1p
b0000000000101010 ,
1;
1"+
#476
0)
0-
b0000000000101011 %
b0000000000101011 "$
0"?
0h
b0000000000101011 {
0p
b0000000000101011 j
0;
0"+
#481
1)
1-
1"?
1h
1p
b0000000000101011 ,
1;
1"+
#486
0)
0-
b0000000000101100 %
b0000000000101100 "$
0"?
0h
b0000000000101100 {
0p
b0000000000101100 j
0;
0"+
#491
1)
1-
1"?
1h
1p
b0000000000101100 ,
1;
1"+
#496
0)
0-
b0000000000101101 %
b0000000000101101 "$
0"?
0h
b0000000000101101 {
0p
b0000000000101101 j
0;
0"+
#501
1)
1-
1"?
1h
1p
b0000000000101101 ,
1;
1"+
#506
0)
0-
b0000000000101110 %
b0000000000101110 "$
0"?
0h
b0000000000101110 {
0p
b0000000000101110 j
0;
0"+
#511
1)
1-
1"?
1h
1p
b0000000000101110 ,
1;
1"+
#516
0)
0-
b0000000000101111 %
b0000000000101111 "$
0"?
0h
b0000000000101111 {
0p
b0000000000101111 j
0;
0"+
#521
1)
1-
1"?
1h
1p
b0000000000101111 ,
1;
1"+
#526
0)
0-
b0000000000110000 %
b0000000000110000 "$
0"?
0h
b0000000000110000 {
0p
b0000000000110000 j
0;
0"+
#531
1)
1-
1"?
1h
1p
b0000000000110000 ,
1;
1"+
#536
0)
0-
b0000000000110001 %
b0000000000110001 "$
0"?
0h
b0000000000110001 {
0p
b0000000000110001 j
0;
0"+
#541
1)
1-
1"?
1h
1p
b0000000000110001 ,
1;
1"+
#546
0)
0-
b0000000000110010 %
b0000000000110010 "$
0"?
0h
b0000000000110010 {
0p
b0000000000110010 j
0;
0"+
#551
1)
1-
1"?
1h
1p
b0000000000110010 ,
1;
1"+
#556
0)
0-
b0000000000110011 %
b0000000000110011 "$
0"?
0h
b0000000000110011 {
0p
b0000000000110011 j
0;
0"+
#561
1)
1-
1"?
1h
1p
b0000000000110011 ,
1;
1"+
#566
0)
0-
b0000000000110100 %
b0000000000110100 "$
0"?
0h
b0000000000110100 {
0p
b0000000000110100 j
0;
0"+
#571
1)
1-
1"?
1h
1p
b0000000000110100 ,
1;
1"+
#576
0)
0-
b0000000000110101 %
b0000000000110101 "$
0"?
0h
b0000000000110101 {
0p
b0000000000110101 j
0;
0"+
#581
1)
1-
1"?
1h
1p
b0000000000110101 ,
1;
1"+
#586
0)
0-
b0000000000110110 %
b0000000000110110 "$
0"?
0h
b0000000000110110 {
0p
b0000000000110110 j
0;
0"+
#591
1)
1-
1"?
1h
1p
b0000000000110110 ,
1;
1"+
#596
0)
0-
b0000000000110111 %
b0000000000110111 "$
0"?
0h
b0000000000110111 {
0p
b0000000000110111 j
0;
0"+
#601
1)
1-
1"?
1h
1p
b0000000000110111 ,
1;
1"+
#606
0)
0-
b0000000000111000 %
b0000000000111000 "$
0"?
0h
b0000000000111000 {
0p
b0000000000111000 j
0;
0"+
#611
1)
1-
1"?
1h
1p
b0000000000111000 ,
1;
1"+
#616
0)
0-
b0000000000111001 %
b0000000000111001 "$
0"?
0h
b0000000000111001 {
0p
b0000000000111001 j
0;
0"+
#621
1)
1-
1"?
1h
1p
b0000000000111001 ,
1;
1"+
#626
0)
0-
b0000000000111010 %
b0000000000111010 "$
0"?
0h
b0000000000111010 {
0p
b0000000000111010 j
0;
0"+
#631
1)
1-
1"?
1h
1p
b0000000000111010 ,
1;
1"+
#636
0)
0-
b0000000000111011 %
b0000000000111011 "$
0"?
0h
b0000000000111011 {
0p
b0000000000111011 j
0;
0"+
#641
1)
1-
1"?
1h
1p
b0000000000111011 ,
1;
1"+
#646
0)
0-
b0000000000111100 %
b0000000000111100 "$
0"?
0h
b0000000000111100 {
0p
b0000000000111100 j
0;
0"+
#651
1)
1-
1"?
1h
1p
b0000000000111100 ,
1;
1"+
#656
0)
0-
b0000000000111101 %
b0000000000111101 "$
0"?
0h
b0000000000111101 {
0p
b0000000000111101 j
0;
0"+
#661
1)
1-
1"?
1h
1p
b0000000000111101 ,
1;
1"+
#666
0)
0-
b0000000000111110 %
b0000000000111110 "$
0"?
0h
b0000000000111110 {
0p
b0000000000111110 j
0;
0"+
#671
1)
1-
1"?
1h
1p
b0000000000111110 ,
1;
1"+
#676
0)
0-
b0000000000111111 %
b0000000000111111 "$
0"?
0h
b0000000000111111 {
0p
b0000000000111111 j
0;
0"+
#681
1)
1-
1"?
1h
1p
b0000000000111111 ,
1;
1"+
#686
0)
0-
b0000000001000000 %
b0000000001000000 "$
0"?
0h
b0000000001000000 {
0p
b0000000001000000 j
0;
0"+
#691
1)
1-
1"?
1h
1p
b0000000001000000 ,
1;
1"+
#696
0)
0-
b0000000001000001 %
b0000000001000001 "$
0"?
0h
b0000000001000001 {
0p
b0000000001000001 j
0;
0"+
#701
1)
1-
1"?
1h
1p
b0000000001000001 ,
1;
1"+
#706
0)
0-
b0000000001000010 %
b0000000001000010 "$
0"?
0h
b0000000001000010 {
0p
b0000000001000010 j
0;
0"+
#711
1)
1-
1"?
1h
1p
b0000000001000010 ,
1;
1"+
#716
0)
0-
b0000000001000011 %
b0000000001000011 "$
0"?
0h
b0000000001000011 {
0p
b0000000001000011 j
0;
0"+
#721
1)
1-
1"?
1h
1p
b0000000001000011 ,
1;
1"+
#726
0)
0-
b0000000001000100 %
b0000000001000100 "$
0"?
0h
b0000000001000100 {
0p
b0000000001000100 j
0;
0"+
#731
1)
1-
1"?
1h
1p
b0000000001000100 ,
1;
1"+
#736
0)
0-
b0000000001000101 %
b0000000001000101 "$
0"?
0h
b0000000001000101 {
0p
b0000000001000101 j
0;
0"+
#741
1)
1-
1"?
1h
1p
b0000000001000101 ,
1;
1"+
#746
0)
0-
b0000000001000110 %
b0000000001000110 "$
0"?
0h
b0000000001000110 {
0p
b0000000001000110 j
0;
0"+
#751
1)
1-
1"?
1h
1p
b0000000001000110 ,
1;
1"+
#756
0)
0-
b0000000001000111 %
b0000000001000111 "$
0"?
0h
b0000000001000111 {
0p
b0000000001000111 j
0;
0"+
#761
1)
1-
1"?
1h
1p
b0000000001000111 ,
1;
1"+
#766
0)
0-
b0000000001001000 %
b0000000001001000 "$
0"?
0h
b0000000001001000 {
0p
b0000000001001000 j
0;
0"+
#771
1)
1-
1"?
1h
1p
b0000000001001000 ,
1;
1"+
#776
0)
0-
b0000000001001001 %
b0000000001001001 "$
0"?
0h
b0000000001001001 {
0p
b0000000001001001 j
0;
0"+
#781
1)
1-
1"?
1h
1p
b0000000001001001 ,
1;
1"+
#786
0)
0-
b0000000001001010 %
b0000000001001010 "$
0"?
0h
b0000000001001010 {
0p
b0000000001001010 j
0;
0"+
#791
1)
1-
1"?
1h
1p
b0000000001001010 ,
1;
1"+
#796
0)
0-
b0000000001001011 %
b0000000001001011 "$
0"?
0h
b0000000001001011 {
0p
b0000000001001011 j
0;
0"+
#801
1)
1-
1"?
1h
1p
b0000000001001011 ,
1;
1"+
#806
0)
0-
b0000000001001100 %
b0000000001001100 "$
0"?
0h
b0000000001001100 {
0p
b0000000001001100 j
0;
0"+
#811
1)
1-
1"?
1h
1p
b0000000001001100 ,
1;
1"+
#816
0)
0-
b0000000001001101 %
b0000000001001101 "$
0"?
0h
b0000000001001101 {
0p
b0000000001001101 j
0;
0"+
#821
1)
1-
1"?
1h
1p
b0000000001001101 ,
1;
1"+
#826
0)
0-
b0000000001001110 %
b0000000001001110 "$
0"?
0h
b0000000001001110 {
0p
b0000000001001110 j
0;
0"+
#831
1)
1-
1"?
1h
1p
b0000000001001110 ,
1;
1"+
#836
0)
0-
b0000000001001111 %
b0000000001001111 "$
0"?
0h
b0000000001001111 {
0p
b0000000001001111 j
0;
0"+
#841
1)
1-
1"?
1h
1p
b0000000001001111 ,
1;
1"+
#846
0)
0-
b0000000001010000 %
b0000000001010000 "$
0"?
0h
b0000000001010000 {
0p
b0000000001010000 j
0;
0"+
#851
1)
1-
1"?
1h
1p
b0000000001010000 ,
1;
1"+
#856
0)
0-
b0000000001010001 %
b0000000001010001 "$
0"?
0h
b0000000001010001 {
0p
b0000000001010001 j
0;
0"+
#861
1)
1-
1"?
1h
1p
b0000000001010001 ,
1;
1"+
#866
0)
0-
b0000000001010010 %
b0000000001010010 "$
0"?
0h
b0000000001010010 {
0p
b0000000001010010 j
0;
0"+
#871
1)
1-
1"?
1h
1p
b0000000001010010 ,
1;
1"+
#876
0)
0-
b0000000001010011 %
b0000000001010011 "$
0"?
0h
b0000000001010011 {
0p
b0000000001010011 j
0;
0"+
#881
1)
1-
1"?
1h
1p
b0000000001010011 ,
1;
1"+
#886
0)
0-
b0000000001010100 %
b0000000001010100 "$
0"?
0h
b0000000001010100 {
0p
b0000000001010100 j
0;
0"+
#891
1)
1-
1"?
1h
1p
b0000000001010100 ,
1;
1"+
#896
0)
0-
b0000000001010101 %
b0000000001010101 "$
0"?
0h
b0000000001010101 {
0p
b0000000001010101 j
0;
0"+
#901
1)
1-
1"?
1h
1p
b0000000001010101 ,
1;
1"+
#906
0)
0-
b0000000001010110 %
b0000000001010110 "$
0"?
0h
b0000000001010110 {
0p
b0000000001010110 j
0;
0"+
#911
1)
1-
1"?
1h
1p
b0000000001010110 ,
1;
1"+
#916
0)
0-
b0000000001010111 %
b0000000001010111 "$
0"?
0h
b0000000001010111 {
0p
b0000000001010111 j
0;
0"+
#921
1)
1-
1"?
1h
1p
b0000000001010111 ,
1;
1"+
#926
0)
0-
b0000000001011000 %
b0000000001011000 "$
0"?
0h
b0000000001011000 {
0p
b0000000001011000 j
0;
0"+
#931
1)
1-
1"?
1h
1p
b0000000001011000 ,
1;
1"+
#936
0)
0-
b0000000001011001 %
b0000000001011001 "$
0"?
0h
b0000000001011001 {
0p
b0000000001011001 j
0;
0"+
#941
1)
1-
1"?
1h
1p
b0000000001011001 ,
1;
1"+
#946
0)
0-
b0000000001011010 %
b0000000001011010 "$
0"?
0h
b0000000001011010 {
0p
b0000000001011010 j
0;
0"+
#951
1)
1-
1"?
1h
1p
b0000000001011010 ,
1;
1"+
#956
0)
0-
b0000000001011011 %
b0000000001011011 "$
0"?
0h
b0000000001011011 {
0p
b0000000001011011 j
0;
0"+
#961
1)
1-
1"?
1h
1p
b0000000001011011 ,
1;
1"+
#966
0)
0-
b0000000001011100 %
b0000000001011100 "$
0"?
0h
b0000000001011100 {
0p
b0000000001011100 j
0;
0"+
#971
1)
1-
1"?
1h
1p
b0000000001011100 ,
1;
1"+
#976
0)
0-
b0000000001011101 %
b0000000001011101 "$
0"?
0h
b0000000001011101 {
0p
b0000000001011101 j
0;
0"+
#981
1)
1-
1"?
1h
1p
b0000000001011101 ,
1;
1"+
#986
0)
0-
b0000000001011110 %
b0000000001011110 "$
0"?
0h
b0000000001011110 {
0p
b0000000001011110 j
0;
0"+
#991
1)
1-
1"?
1h
1p
b0000000001011110 ,
1;
1"+
#996
b00000000000000000000000011111111 Q
0-
b0000000001011111 %
b0000000001011111 "$
b00000000000000000000000011111111 &
0h
b00000000000000000000000011111111 Z
0p
b0000000001011111 j
0)
b00000000000000000000000011111111 N
0"?
b00000000000000000000000011111111 #
b00000000000000000000000011111111 "1
b0000000001011111 {
0;
0"+
#1001
1)
1-
1"?
1h
b00000000000000000000000011111111 e
1p
b00000000000000000000000011111111 "9
b0000000001011111 ,
1;
1"+
#1006
b00000000000000000000000000000000 Q
0-
b0000000001100000 %
b0000000001100000 "$
b00000000000000000000000000000000 &
0h
b00000000000000000000000000000000 Z
0p
b0000000001100000 j
0)
b00000000000000000000000000000000 N
0"?
b00000000000000000000000000000000 #
b00000000000000000000000000000000 "1
b0000000001100000 {
b00000000000000000000000000000000 "9
0;
0"+
#1011
1)
1-
1"?
1h
b00000000000000000000000000000000 e
1p
b0000000001100000 ,
1;
1"+
#1016
0)
0-
b0000000001100001 %
b0000000001100001 "$
0"?
0h
b0000000001100001 {
0p
b0000000001100001 j
0;
0"+
#1021
1)
1-
1"?
1h
1p
b0000000001100001 ,
1;
1"+
#1026
0)
0-
b0000000001100010 %
b0000000001100010 "$
0"?
0h
b0000000001100010 {
0p
b0000000001100010 j
0;
0"+
#1031
1)
1-
1"?
1h
1p
b0000000001100010 ,
1;
1"+
#1036
0)
0-
b0000000001100011 %
b0000000001100011 "$
0"?
0h
b0000000001100011 {
0p
b0000000001100011 j
0;
0"+
#1041
1)
1-
1"?
1h
1p
b0000000001100011 ,
1;
1"+
#1046
0)
0-
b0000000001100100 %
b0000000001100100 "$
0"?
0h
b0000000001100100 {
0p
b0000000001100100 j
0;
0"+
